%!PS-Adobe-3.0 EPSF-3.0
%%Title: ACO_solution.eps
%%Creator: Matplotlib v3.5.3, https://matplotlib.org/
%%CreationDate: Thu Jan 12 17:24:54 2023
%%Orientation: portrait
%%BoundingBox: 75 223 537 569
%%HiResBoundingBox: 75.600000 223.200000 536.400000 568.800000
%%EndComments
%%BeginProlog
/mpldict 12 dict def
mpldict begin
/_d { bind def } bind def
/m { moveto } _d
/l { lineto } _d
/r { rlineto } _d
/c { curveto } _d
/cl { closepath } _d
/ce { closepath eofill } _d
/box {
      m
      1 index 0 r
      0 exch r
      neg 0 r
      cl
    } _d
/clipbox {
      box
      clip
      newpath
    } _d
/sc { setcachedevice } _d
%!PS-Adobe-3.0 Resource-Font
%%Creator: Converted from TrueType to Type 3 by Matplotlib.
10 dict begin
/FontName /DejaVuSans def
/PaintType 0 def
/FontMatrix [0.00048828125 0 0 0.00048828125 0 0] def
/FontBBox [-2090 -948 3673 2524] def
/FontType 3 def
/Encoding [/zero /one /minus /two /five /seven] def
/CharStrings 7 dict dup begin
/.notdef 0 def
/zero{1303 0 135 -29 1167 1520 sc
651 1360 m
547 1360 469 1309 416 1206 c
364 1104 338 950 338 745 c
338 540 364 387 416 284 c
469 182 547 131 651 131 c
756 131 834 182 886 284 c
939 387 965 540 965 745 c
965 950 939 1104 886 1206 c
834 1309 756 1360 651 1360 c

651 1520 m
818 1520 946 1454 1034 1321 c
1123 1189 1167 997 1167 745 c
1167 494 1123 302 1034 169 c
946 37 818 -29 651 -29 c
484 -29 356 37 267 169 c
179 302 135 494 135 745 c
135 997 179 1189 267 1321 c
356 1454 484 1520 651 1520 c

ce} _d
/one{1303 0 225 0 1114 1493 sc
254 170 m
584 170 l
584 1309 l
225 1237 l
225 1421 l
582 1493 l
784 1493 l
784 170 l
1114 170 l
1114 0 l
254 0 l
254 170 l

ce} _d
/minus{1716 0 217 557 1499 727 sc
217 727 m
1499 727 l
1499 557 l
217 557 l
217 727 l

ce} _d
/two{1303 0 150 0 1098 1520 sc
393 170 m
1098 170 l
1098 0 l
150 0 l
150 170 l
227 249 331 356 463 489 c
596 623 679 709 713 748 c
778 821 823 882 848 932 c
874 983 887 1032 887 1081 c
887 1160 859 1225 803 1275 c
748 1325 675 1350 586 1350 c
523 1350 456 1339 385 1317 c
315 1295 240 1262 160 1217 c
160 1421 l
241 1454 317 1478 388 1495 c
459 1512 523 1520 582 1520 c
737 1520 860 1481 952 1404 c
1044 1327 1090 1223 1090 1094 c
1090 1033 1078 974 1055 919 c
1032 864 991 800 930 725 c
913 706 860 650 771 557 c
682 465 556 336 393 170 c

ce} _d
/five{1303 0 158 -29 1124 1493 sc
221 1493 m
1014 1493 l
1014 1323 l
406 1323 l
406 957 l
435 967 465 974 494 979 c
523 984 553 987 582 987 c
749 987 881 941 978 850 c
1075 759 1124 635 1124 479 c
1124 318 1074 193 974 104 c
874 15 733 -29 551 -29 c
488 -29 424 -24 359 -13 c
294 -2 227 14 158 35 c
158 238 l
218 205 280 181 344 165 c
408 149 476 141 547 141 c
662 141 754 171 821 232 c
888 293 922 375 922 479 c
922 583 888 665 821 726 c
754 787 662 817 547 817 c
493 817 439 811 385 799 c
332 787 277 768 221 743 c
221 1493 l

ce} _d
/seven{1303 0 168 0 1128 1493 sc
168 1493 m
1128 1493 l
1128 1407 l
586 0 l
375 0 l
885 1323 l
168 1323 l
168 1493 l

ce} _d
end readonly def

/BuildGlyph {
 exch begin
 CharStrings exch
 2 copy known not {pop /.notdef} if
 true 3 1 roll get exec
 end
} _d

/BuildChar {
 1 index /Encoding get exch get
 1 index /BuildGlyph get exec
} _d

FontName currentdict end definefont pop
%!PS-Adobe-3.0 Resource-Font
%%Creator: Converted from TrueType to Type 3 by Matplotlib.
10 dict begin
/FontName /TimesNewRomanPSMT def
/PaintType 0 def
/FontMatrix [0.00048828125 0 0 0.00048828125 0 0] def
/FontBBox [-1164 -628 4096 2062] def
/FontType 3 def
/Encoding [/X /Y] def
/CharStrings 3 dict dup begin
/.notdef 0 def
/X{1479 0 15 0 1455 1356 sc
836 751 m
1127 317 l
1208 197 1267 121 1306 89 c
1345 58 1395 40 1455 37 c
1455 0 l
873 0 l
873 37 l
912 38 940 42 959 49 c
973 55 984 64 993 76 c
1002 89 1007 101 1007 114 c
1007 129 1004 145 998 160 c
993 171 975 201 943 248 c
713 596 l
429 232 l
399 193 381 167 375 154 c
369 141 366 128 366 114 c
366 93 375 75 393 61 c
411 47 445 39 496 37 c
496 0 l
15 0 l
15 37 l
49 40 78 47 103 58 c
144 75 184 99 221 128 c
258 157 301 202 349 263 c
669 667 l
402 1058 l
329 1164 268 1233 217 1266 c
166 1299 108 1317 42 1319 c
42 1356 l
669 1356 l
669 1319 l
616 1317 579 1308 559 1293 c
540 1278 530 1261 530 1242 c
530 1217 546 1181 578 1134 c
786 823 l
1027 1128 l
1055 1164 1072 1189 1078 1202 c
1085 1215 1088 1229 1088 1243 c
1088 1257 1084 1269 1076 1280 c
1066 1294 1053 1304 1038 1309 c
1023 1315 991 1318 943 1319 c
943 1356 l
1424 1356 l
1424 1319 l
1386 1317 1355 1311 1331 1301 c
1295 1286 1262 1265 1232 1239 c
1202 1213 1160 1165 1105 1095 c
836 751 l

ce} _d
/Y{1479 0 19 0 1449 1356 sc
976 1356 m
1449 1356 l
1449 1319 l
1423 1319 l
1406 1319 1380 1311 1347 1296 c
1314 1281 1283 1259 1256 1230 c
1229 1201 1195 1155 1155 1090 c
828 575 l
828 235 l
828 152 837 100 856 79 c
881 51 921 37 976 37 c
1020 37 l
1020 0 l
444 0 l
444 37 l
492 37 l
549 37 590 54 614 89 c
629 110 636 159 636 235 c
636 556 l
264 1124 l
220 1191 190 1232 174 1249 c
159 1266 126 1286 77 1309 c
64 1316 44 1319 19 1319 c
19 1356 l
599 1356 l
599 1319 l
569 1319 l
538 1319 509 1312 482 1297 c
456 1282 443 1260 443 1231 c
443 1207 463 1164 504 1101 c
787 664 l
1053 1082 l
1093 1145 1113 1191 1113 1222 c
1113 1241 1108 1257 1098 1272 c
1089 1287 1075 1298 1057 1306 c
1039 1315 1012 1319 976 1319 c
976 1356 l

ce} _d
end readonly def

/BuildGlyph {
 exch begin
 CharStrings exch
 2 copy known not {pop /.notdef} if
 true 3 1 roll get exec
 end
} _d

/BuildChar {
 1 index /Encoding get exch get
 1 index /BuildGlyph get exec
} _d

FontName currentdict end definefont pop
end
%%EndProlog
mpldict begin
75.6 223.2 translate
460.8 345.6 0 0 clipbox
gsave
0 0 m
460.8 0 l
460.8 345.6 l
0 345.6 l
cl
1.000 setgray
fill
grestore
gsave
57.6 38.016 m
414.72 38.016 l
414.72 304.128 l
57.6 304.128 l
cl
1.000 setgray
fill
grestore
1.000 setlinewidth
1 setlinejoin
0 setlinecap
[] 0 setdash
1.000 0.000 0.000 setrgbcolor
gsave
357.12 266.112 57.6 38.016 clipbox
/o {
gsave
newpath
translate
1.0 setlinewidth
1 setlinejoin

0 setlinecap

0 -5 m
1.326016 -5 2.597899 -4.473168 3.535534 -3.535534 c
4.473168 -2.597899 5 -1.326016 5 0 c
5 1.326016 4.473168 2.597899 3.535534 3.535534 c
2.597899 4.473168 1.326016 5 0 5 c
-1.326016 5 -2.597899 4.473168 -3.535534 3.535534 c
-4.473168 2.597899 -5 1.326016 -5 0 c
-5 -1.326016 -4.473168 -2.597899 -3.535534 -3.535534 c
-2.597899 -4.473168 -1.326016 -5 0 -5 c
cl

gsave
1.000 0.000 0.000 setrgbcolor
fill
grestore
stroke
grestore
} bind def
130.879 236.135 o
271.361 274.363 o
266.903 219.364 o
315.322 138.93 o
146.477 50.5544 o
222.163 204.886 o
155.9 172.612 o
144.475 116.707 o
283.348 267.378 o
355.608 94.4846 o
197.109 266.488 o
148.201 286.51 o
272.604 83.1772 o
343.632 207.58 o
247.662 104.992 o
73.9722 100.437 o
184.08 201.938 o
398.487 93.7848 o
319.922 266.093 o
222.199 81.5453 o
338.391 162.12 o
100.09 263.402 o
278.103 65.909 o
371.846 50.112 o
73.8327 292.032 o
grestore
0.800 setlinewidth
0.000 setgray
gsave
/o {
gsave
newpath
translate
0.8 setlinewidth
1 setlinejoin

0 setlinecap

0 0 m
0 -3.5 l

gsave
0.000 setgray
fill
grestore
stroke
grestore
} bind def
60.1962 38.016 o
grestore
/DejaVuSans 10.000 selectfont
gsave

46.469624 23.422250 translate
0.000000 rotate
0.000000 0 m /minus glyphshow
8.378906 0 m /one glyphshow
14.741211 0 m /zero glyphshow
21.103516 0 m /zero glyphshow
grestore
gsave
/o {
gsave
newpath
translate
0.8 setlinewidth
1 setlinejoin

0 setlinecap

0 0 m
0 -3.5 l

gsave
0.000 setgray
fill
grestore
stroke
grestore
} bind def
103.079 38.016 o
grestore
gsave

92.531846 23.422250 translate
0.000000 rotate
0.000000 0 m /minus glyphshow
8.378906 0 m /seven glyphshow
14.741211 0 m /five glyphshow
grestore
gsave
/o {
gsave
newpath
translate
0.8 setlinewidth
1 setlinejoin

0 setlinecap

0 0 m
0 -3.5 l

gsave
0.000 setgray
fill
grestore
stroke
grestore
} bind def
145.961 38.016 o
grestore
gsave

135.414381 23.422250 translate
0.000000 rotate
0.000000 0 m /minus glyphshow
8.378906 0 m /five glyphshow
14.741211 0 m /zero glyphshow
grestore
gsave
/o {
gsave
newpath
translate
0.8 setlinewidth
1 setlinejoin

0 setlinecap

0 0 m
0 -3.5 l

gsave
0.000 setgray
fill
grestore
stroke
grestore
} bind def
188.844 38.016 o
grestore
gsave

178.296915 23.422250 translate
0.000000 rotate
0.000000 0 m /minus glyphshow
8.378906 0 m /two glyphshow
14.741211 0 m /five glyphshow
grestore
gsave
/o {
gsave
newpath
translate
0.8 setlinewidth
1 setlinejoin

0 setlinecap

0 0 m
0 -3.5 l

gsave
0.000 setgray
fill
grestore
stroke
grestore
} bind def
231.726 38.016 o
grestore
gsave

228.546637 23.422250 translate
0.000000 rotate
0.000000 0 m /zero glyphshow
grestore
gsave
/o {
gsave
newpath
translate
0.8 setlinewidth
1 setlinejoin

0 setlinecap

0 0 m
0 -3.5 l

gsave
0.000 setgray
fill
grestore
stroke
grestore
} bind def
274.609 38.016 o
grestore
gsave

268.249485 23.422250 translate
0.000000 rotate
0.000000 0 m /two glyphshow
6.362305 0 m /five glyphshow
grestore
gsave
/o {
gsave
newpath
translate
0.8 setlinewidth
1 setlinejoin

0 setlinecap

0 0 m
0 -3.5 l

gsave
0.000 setgray
fill
grestore
stroke
grestore
} bind def
317.491 38.016 o
grestore
gsave

311.132019 23.422250 translate
0.000000 rotate
0.000000 0 m /five glyphshow
6.362305 0 m /zero glyphshow
grestore
gsave
/o {
gsave
newpath
translate
0.8 setlinewidth
1 setlinejoin

0 setlinecap

0 0 m
0 -3.5 l

gsave
0.000 setgray
fill
grestore
stroke
grestore
} bind def
360.374 38.016 o
grestore
gsave

354.014554 23.422250 translate
0.000000 rotate
0.000000 0 m /seven glyphshow
6.362305 0 m /five glyphshow
grestore
gsave
/o {
gsave
newpath
translate
0.8 setlinewidth
1 setlinejoin

0 setlinecap

0 0 m
0 -3.5 l

gsave
0.000 setgray
fill
grestore
stroke
grestore
} bind def
403.256 38.016 o
grestore
gsave

393.717401 23.422250 translate
0.000000 rotate
0.000000 0 m /one glyphshow
6.362305 0 m /zero glyphshow
12.724609 0 m /zero glyphshow
grestore
/TimesNewRomanPSMT 24.000 selectfont
gsave

227.495937 0.672250 translate
0.000000 rotate
0.000000 0 m /X glyphshow
grestore
gsave
/o {
gsave
newpath
translate
0.8 setlinewidth
1 setlinejoin

0 setlinecap

-0 0 m
-3.5 0 l

gsave
0.000 setgray
fill
grestore
stroke
grestore
} bind def
57.6 41.2283 o
grestore
/DejaVuSans 10.000 selectfont
gsave

23.146875 37.431417 translate
0.000000 rotate
0.000000 0 m /minus glyphshow
8.378906 0 m /one glyphshow
14.741211 0 m /zero glyphshow
21.103516 0 m /zero glyphshow
grestore
gsave
/o {
gsave
newpath
translate
0.8 setlinewidth
1 setlinejoin

0 setlinecap

-0 0 m
-3.5 0 l

gsave
0.000 setgray
fill
grestore
stroke
grestore
} bind def
57.6 72.9413 o
grestore
gsave

29.506250 69.144427 translate
0.000000 rotate
0.000000 0 m /minus glyphshow
8.378906 0 m /seven glyphshow
14.741211 0 m /five glyphshow
grestore
gsave
/o {
gsave
newpath
translate
0.8 setlinewidth
1 setlinejoin

0 setlinecap

-0 0 m
-3.5 0 l

gsave
0.000 setgray
fill
grestore
stroke
grestore
} bind def
57.6 104.654 o
grestore
gsave

29.506250 100.857438 translate
0.000000 rotate
0.000000 0 m /minus glyphshow
8.378906 0 m /five glyphshow
14.741211 0 m /zero glyphshow
grestore
gsave
/o {
gsave
newpath
translate
0.8 setlinewidth
1 setlinejoin

0 setlinecap

-0 0 m
-3.5 0 l

gsave
0.000 setgray
fill
grestore
stroke
grestore
} bind def
57.6 136.367 o
grestore
gsave

29.506250 132.570448 translate
0.000000 rotate
0.000000 0 m /minus glyphshow
8.378906 0 m /two glyphshow
14.741211 0 m /five glyphshow
grestore
gsave
/o {
gsave
newpath
translate
0.8 setlinewidth
1 setlinejoin

0 setlinecap

-0 0 m
-3.5 0 l

gsave
0.000 setgray
fill
grestore
stroke
grestore
} bind def
57.6 168.08 o
grestore
gsave

44.240625 164.283458 translate
0.000000 rotate
0.000000 0 m /zero glyphshow
grestore
gsave
/o {
gsave
newpath
translate
0.8 setlinewidth
1 setlinejoin

0 setlinecap

-0 0 m
-3.5 0 l

gsave
0.000 setgray
fill
grestore
stroke
grestore
} bind def
57.6 199.793 o
grestore
gsave

37.881250 195.996468 translate
0.000000 rotate
0.000000 0 m /two glyphshow
6.362305 0 m /five glyphshow
grestore
gsave
/o {
gsave
newpath
translate
0.8 setlinewidth
1 setlinejoin

0 setlinecap

-0 0 m
-3.5 0 l

gsave
0.000 setgray
fill
grestore
stroke
grestore
} bind def
57.6 231.506 o
grestore
gsave

37.881250 227.709478 translate
0.000000 rotate
0.000000 0 m /five glyphshow
6.362305 0 m /zero glyphshow
grestore
gsave
/o {
gsave
newpath
translate
0.8 setlinewidth
1 setlinejoin

0 setlinecap

-0 0 m
-3.5 0 l

gsave
0.000 setgray
fill
grestore
stroke
grestore
} bind def
57.6 263.219 o
grestore
gsave

37.881250 259.422488 translate
0.000000 rotate
0.000000 0 m /seven glyphshow
6.362305 0 m /five glyphshow
grestore
gsave
/o {
gsave
newpath
translate
0.8 setlinewidth
1 setlinejoin

0 setlinecap

-0 0 m
-3.5 0 l

gsave
0.000 setgray
fill
grestore
stroke
grestore
} bind def
57.6 294.932 o
grestore
gsave

31.521875 291.135498 translate
0.000000 rotate
0.000000 0 m /one glyphshow
6.362305 0 m /zero glyphshow
12.724609 0 m /zero glyphshow
grestore
/TimesNewRomanPSMT 24.000 selectfont
gsave

14.006250 162.407937 translate
90.000000 rotate
0.000000 0 m /Y glyphshow
grestore
1.500 setlinewidth
2 setlinecap
0.000 0.000 1.000 setrgbcolor
gsave
357.12 266.112 57.6 38.016 clipbox
222.16279 204.885774 m
266.902786 219.363626 l
283.348009 267.378411 l
271.360724 274.362677 l
319.921613 266.09335 l
343.632254 207.580308 l
338.390896 162.120254 l
315.321523 138.930311 l
355.60761 94.484604 l
398.487273 93.784779 l
371.845678 50.112 l
278.103402 65.908968 l
272.60448 83.177188 l
247.662361 104.991557 l
222.199493 81.545302 l
146.477146 50.554388 l
73.972247 100.436587 l
144.474651 116.70733 l
155.899691 172.611718 l
184.07969 201.938419 l
130.879426 236.135148 l
100.089819 263.402185 l
73.832727 292.032 l
148.200757 286.509804 l
197.109454 266.487838 l
stroke
grestore
0.800 setlinewidth
0 setlinejoin
0.000 setgray
gsave
57.6 38.016 m
57.6 304.128 l
stroke
grestore
gsave
414.72 38.016 m
414.72 304.128 l
stroke
grestore
gsave
57.6 38.016 m
414.72 38.016 l
stroke
grestore
gsave
57.6 304.128 m
414.72 304.128 l
stroke
grestore

end
showpage
