%!PS-Adobe-3.0 EPSF-3.0
%%Title: PSO_convergence_curve.eps
%%Creator: Matplotlib v3.5.3, https://matplotlib.org/
%%CreationDate: Thu Jan 12 15:06:36 2023
%%Orientation: portrait
%%BoundingBox: 0 198 612 594
%%HiResBoundingBox: 0.000000 198.000000 612.000000 594.000000
%%EndComments
%%BeginProlog
/mpldict 12 dict def
mpldict begin
/_d { bind def } bind def
/m { moveto } _d
/l { lineto } _d
/r { rlineto } _d
/c { curveto } _d
/cl { closepath } _d
/ce { closepath eofill } _d
/box {
      m
      1 index 0 r
      0 exch r
      neg 0 r
      cl
    } _d
/clipbox {
      box
      clip
      newpath
    } _d
/sc { setcachedevice } _d
%!PS-Adobe-3.0 Resource-Font
%%Creator: Converted from TrueType to Type 3 by Matplotlib.
10 dict begin
/FontName /DejaVuSans def
/PaintType 0 def
/FontMatrix [0.00048828125 0 0 0.00048828125 0 0] def
/FontBBox [-2090 -948 3673 2524] def
/FontType 3 def
/Encoding [/zero /one /two /four /six /eight] def
/CharStrings 7 dict dup begin
/.notdef 0 def
/zero{1303 0 135 -29 1167 1520 sc
651 1360 m
547 1360 469 1309 416 1206 c
364 1104 338 950 338 745 c
338 540 364 387 416 284 c
469 182 547 131 651 131 c
756 131 834 182 886 284 c
939 387 965 540 965 745 c
965 950 939 1104 886 1206 c
834 1309 756 1360 651 1360 c

651 1520 m
818 1520 946 1454 1034 1321 c
1123 1189 1167 997 1167 745 c
1167 494 1123 302 1034 169 c
946 37 818 -29 651 -29 c
484 -29 356 37 267 169 c
179 302 135 494 135 745 c
135 997 179 1189 267 1321 c
356 1454 484 1520 651 1520 c

ce} _d
/one{1303 0 225 0 1114 1493 sc
254 170 m
584 170 l
584 1309 l
225 1237 l
225 1421 l
582 1493 l
784 1493 l
784 170 l
1114 170 l
1114 0 l
254 0 l
254 170 l

ce} _d
/two{1303 0 150 0 1098 1520 sc
393 170 m
1098 170 l
1098 0 l
150 0 l
150 170 l
227 249 331 356 463 489 c
596 623 679 709 713 748 c
778 821 823 882 848 932 c
874 983 887 1032 887 1081 c
887 1160 859 1225 803 1275 c
748 1325 675 1350 586 1350 c
523 1350 456 1339 385 1317 c
315 1295 240 1262 160 1217 c
160 1421 l
241 1454 317 1478 388 1495 c
459 1512 523 1520 582 1520 c
737 1520 860 1481 952 1404 c
1044 1327 1090 1223 1090 1094 c
1090 1033 1078 974 1055 919 c
1032 864 991 800 930 725 c
913 706 860 650 771 557 c
682 465 556 336 393 170 c

ce} _d
/four{1303 0 100 0 1188 1493 sc
774 1317 m
264 520 l
774 520 l
774 1317 l

721 1493 m
975 1493 l
975 520 l
1188 520 l
1188 352 l
975 352 l
975 0 l
774 0 l
774 352 l
100 352 l
100 547 l
721 1493 l

ce} _d
/six{1303 0 143 -29 1174 1520 sc
676 827 m
585 827 513 796 460 734 c
407 672 381 587 381 479 c
381 372 407 287 460 224 c
513 162 585 131 676 131 c
767 131 838 162 891 224 c
944 287 971 372 971 479 c
971 587 944 672 891 734 c
838 796 767 827 676 827 c

1077 1460 m
1077 1276 l
1026 1300 975 1318 923 1331 c
872 1344 821 1350 770 1350 c
637 1350 535 1305 464 1215 c
394 1125 354 989 344 807 c
383 865 433 909 492 940 c
551 971 617 987 688 987 c
838 987 956 941 1043 850 c
1130 759 1174 636 1174 479 c
1174 326 1129 203 1038 110 c
947 17 827 -29 676 -29 c
503 -29 371 37 280 169 c
189 302 143 494 143 745 c
143 981 199 1169 311 1309 c
423 1450 573 1520 762 1520 c
813 1520 864 1515 915 1505 c
967 1495 1021 1480 1077 1460 c

ce} _d
/eight{1303 0 139 -29 1163 1520 sc
651 709 m
555 709 479 683 424 632 c
369 581 342 510 342 420 c
342 330 369 259 424 208 c
479 157 555 131 651 131 c
747 131 823 157 878 208 c
933 260 961 331 961 420 c
961 510 933 581 878 632 c
823 683 748 709 651 709 c

449 795 m
362 816 295 857 246 916 c
198 975 174 1048 174 1133 c
174 1252 216 1347 301 1416 c
386 1485 503 1520 651 1520 c
800 1520 916 1485 1001 1416 c
1086 1347 1128 1252 1128 1133 c
1128 1048 1104 975 1055 916 c
1007 857 940 816 854 795 c
951 772 1027 728 1081 662 c
1136 596 1163 515 1163 420 c
1163 275 1119 164 1030 87 c
942 10 816 -29 651 -29 c
486 -29 360 10 271 87 c
183 164 139 275 139 420 c
139 515 166 596 221 662 c
276 728 352 772 449 795 c

375 1114 m
375 1037 399 976 447 933 c
496 890 564 868 651 868 c
738 868 805 890 854 933 c
903 976 928 1037 928 1114 c
928 1191 903 1252 854 1295 c
805 1338 738 1360 651 1360 c
564 1360 496 1338 447 1295 c
399 1252 375 1191 375 1114 c

ce} _d
end readonly def

/BuildGlyph {
 exch begin
 CharStrings exch
 2 copy known not {pop /.notdef} if
 true 3 1 roll get exec
 end
} _d

/BuildChar {
 1 index /Encoding get exch get
 1 index /BuildGlyph get exec
} _d

FontName currentdict end definefont pop
%!PS-Adobe-3.0 Resource-Font
%%Creator: Converted from TrueType to Type 3 by Matplotlib.
10 dict begin
/FontName /TimesNewRomanPSMT def
/PaintType 0 def
/FontMatrix [0.00048828125 0 0 0.00048828125 0 0] def
/FontBBox [-1164 -628 4096 2062] def
/FontType 3 def
/Encoding [/a /e /F /I /i /n /o /r /s /t] def
/CharStrings 11 dict dup begin
/.notdef 0 def
/a{909 0 73 -19 905 943 sc
583 132 m
489 59 430 17 406 6 c
370 -11 332 -19 291 -19 c
228 -19 175 3 134 46 c
93 89 73 146 73 217 c
73 262 83 300 103 333 c
130 378 178 421 245 461 c
313 501 426 550 583 607 c
583 643 l
583 734 568 797 539 831 c
510 865 468 882 413 882 c
371 882 338 871 313 848 c
288 825 275 799 275 770 c
277 712 l
277 681 269 658 253 641 c
238 624 217 616 192 616 c
167 616 147 625 131 642 c
116 659 108 683 108 713 c
108 770 137 823 196 871 c
255 919 337 943 443 943 c
524 943 591 929 643 902 c
682 881 711 849 730 805 c
742 776 748 718 748 629 c
748 318 l
748 231 750 177 753 157 c
756 138 762 125 769 118 c
777 111 786 108 796 108 c
807 108 816 110 824 115 c
838 124 865 148 905 188 c
905 132 l
830 32 759 -18 691 -18 c
658 -18 632 -7 613 16 c
594 39 584 77 583 132 c

583 197 m
583 546 l
482 506 417 478 388 461 c
335 432 298 401 275 369 c
252 337 241 302 241 264 c
241 216 255 176 284 144 c
313 113 346 97 383 97 c
434 97 500 130 583 197 c

ce} _d
/e{909 0 76 -28 851 944 sc
218 571 m
217 435 250 328 317 251 c
384 174 462 135 552 135 c
612 135 664 151 708 184 c
753 217 790 274 820 354 c
851 334 l
837 243 796 159 729 84 c
662 9 577 -28 476 -28 c
366 -28 272 15 193 100 c
115 186 76 301 76 446 c
76 603 116 725 196 812 c
277 900 378 944 499 944 c
602 944 686 910 752 842 c
818 775 851 684 851 571 c
218 571 l

218 629 m
642 629 l
639 688 632 729 621 753 c
604 790 579 820 546 841 c
513 862 479 873 443 873 c
388 873 338 851 294 808 c
251 765 225 706 218 629 c

ce} _d
/F{1139 0 33 0 1055 1356 sc
419 1282 m
419 749 l
666 749 l
723 749 764 761 790 786 c
817 811 834 861 843 935 c
880 935 l
880 476 l
843 476 l
842 529 835 567 822 592 c
809 617 791 635 768 647 c
745 660 711 666 666 666 c
419 666 l
419 240 l
419 171 423 126 432 104 c
439 87 453 73 474 61 c
503 45 534 37 566 37 c
615 37 l
615 0 l
33 0 l
33 37 l
81 37 l
137 37 178 53 203 86 c
219 107 227 159 227 240 c
227 1116 l
227 1185 223 1230 214 1252 c
207 1269 194 1283 173 1295 c
144 1311 114 1319 81 1319 c
33 1319 l
33 1356 l
1042 1356 l
1055 1058 l
1020 1058 l
1003 1121 982 1168 959 1197 c
936 1227 908 1249 874 1262 c
841 1275 789 1282 718 1282 c
419 1282 l

ce} _d
/I{682 0 51 0 632 1356 sc
632 37 m
632 0 l
51 0 l
51 37 l
99 37 l
155 37 196 53 221 86 c
237 107 245 159 245 240 c
245 1116 l
245 1185 241 1230 232 1252 c
225 1269 212 1283 191 1295 c
162 1311 131 1319 99 1319 c
51 1319 l
51 1356 l
632 1356 l
632 1319 l
583 1319 l
528 1319 487 1303 462 1270 c
445 1249 437 1197 437 1116 c
437 240 l
437 171 441 126 450 104 c
457 87 471 73 492 61 c
521 45 551 37 583 37 c
632 37 l

ce} _d
/i{569 0 60 0 519 1422 sc
297 1422 m
325 1422 349 1412 368 1392 c
388 1373 398 1349 398 1321 c
398 1293 388 1269 368 1249 c
349 1229 325 1219 297 1219 c
269 1219 245 1229 225 1249 c
205 1269 195 1293 195 1321 c
195 1349 205 1373 224 1392 c
244 1412 268 1422 297 1422 c

380 943 m
380 207 l
380 150 384 111 392 92 c
401 73 413 59 429 50 c
446 41 476 36 519 36 c
519 0 l
74 0 l
74 36 l
119 36 149 40 164 49 c
179 58 191 72 200 92 c
209 112 214 150 214 207 c
214 560 l
214 659 211 724 205 753 c
200 774 193 789 183 797 c
173 806 159 810 142 810 c
123 810 101 805 74 795 c
60 831 l
336 943 l
380 943 l

ce} _d
/n{1024 0 12 0 1015 943 sc
331 749 m
438 878 541 943 638 943 c
688 943 731 930 767 905 c
803 880 832 839 853 782 c
868 742 875 681 875 598 c
875 207 l
875 149 880 110 889 89 c
896 72 908 59 924 50 c
941 41 971 36 1015 36 c
1015 0 l
562 0 l
562 36 l
581 36 l
624 36 653 42 670 55 c
687 68 699 88 706 113 c
709 123 710 154 710 207 c
710 582 l
710 665 699 726 677 763 c
656 801 619 820 568 820 c
489 820 410 777 331 690 c
331 207 l
331 145 335 107 342 92 c
351 73 364 58 380 49 c
397 40 430 36 480 36 c
480 0 l
27 0 l
27 36 l
47 36 l
94 36 125 48 141 71 c
158 95 166 140 166 207 c
166 547 l
166 657 163 724 158 748 c
153 772 146 788 135 797 c
125 806 111 810 94 810 c
75 810 53 805 27 795 c
12 831 l
288 943 l
331 943 l
331 749 l

ce} _d
/o{1024 0 69 -28 953 943 sc
512 943 m
651 943 762 890 846 785 c
917 695 953 592 953 475 c
953 393 933 310 894 226 c
855 142 800 79 731 36 c
662 -7 586 -28 501 -28 c
363 -28 253 27 172 137 c
103 230 69 334 69 449 c
69 533 90 616 131 699 c
173 782 228 844 296 883 c
364 923 436 943 512 943 c

481 878 m
446 878 410 867 374 846 c
339 825 310 789 288 736 c
266 683 255 616 255 533 c
255 400 281 285 334 188 c
387 91 457 43 544 43 c
609 43 662 70 704 123 c
746 176 767 268 767 398 c
767 561 732 689 662 782 c
615 846 554 878 481 878 c

ce} _d
/r{682 0 13 0 695 943 sc
332 943 m
332 737 l
409 874 487 943 568 943 c
605 943 635 932 659 909 c
683 887 695 861 695 832 c
695 806 686 784 669 766 c
652 748 631 739 607 739 c
584 739 557 750 528 773 c
499 796 478 808 464 808 c
452 808 439 801 425 788 c
395 761 364 716 332 653 c
332 214 l
332 163 338 125 351 99 c
360 81 375 66 397 54 c
419 42 451 36 492 36 c
492 0 l
23 0 l
23 36 l
70 36 104 43 127 58 c
144 69 155 86 162 109 c
165 120 167 153 167 206 c
167 561 l
167 668 165 731 160 751 c
156 772 148 787 136 796 c
125 805 110 810 93 810 c
72 810 49 805 23 795 c
13 831 l
290 943 l
332 943 l

ce} _d
/s{797 0 100 -28 725 943 sc
656 943 m
656 631 l
623 631 l
598 729 565 796 525 831 c
486 866 435 884 374 884 c
327 884 290 872 261 847 c
232 822 218 795 218 765 c
218 728 229 696 250 669 c
271 642 313 613 376 582 c
522 511 l
657 445 725 358 725 250 c
725 167 693 99 630 48 c
567 -3 497 -28 419 -28 c
363 -28 299 -18 227 2 c
205 9 187 12 173 12 c
158 12 146 3 137 -14 c
104 -14 l
104 313 l
137 313 l
156 220 191 149 244 102 c
297 55 356 31 421 31 c
467 31 504 44 533 71 c
562 98 577 131 577 169 c
577 215 561 254 528 285 c
496 316 432 356 335 404 c
238 452 175 495 145 534 c
115 572 100 620 100 678 c
100 753 126 816 177 867 c
229 918 296 943 378 943 c
414 943 458 935 509 920 c
543 910 566 905 577 905 c
588 905 596 907 602 912 c
608 917 615 927 623 943 c
656 943 l

ce} _d
/t{569 0 20 -15 572 1217 sc
330 1217 m
330 916 l
544 916 l
544 846 l
330 846 l
330 252 l
330 193 338 153 355 132 c
372 111 394 101 421 101 c
443 101 464 108 485 121 c
506 135 522 155 533 182 c
572 182 l
549 117 516 67 473 34 c
430 1 386 -15 341 -15 c
310 -15 280 -7 251 10 c
222 27 200 52 186 83 c
172 115 165 164 165 230 c
165 846 l
20 846 l
20 879 l
57 894 94 918 132 953 c
171 988 205 1030 235 1078 c
250 1103 272 1150 299 1217 c
330 1217 l

ce} _d
end readonly def

/BuildGlyph {
 exch begin
 CharStrings exch
 2 copy known not {pop /.notdef} if
 true 3 1 roll get exec
 end
} _d

/BuildChar {
 1 index /Encoding get exch get
 1 index /BuildGlyph get exec
} _d

FontName currentdict end definefont pop
end
%%EndProlog
mpldict begin
0 198 translate
612 396 0 0 clipbox
gsave
0 0 m
612 0 l
612 396 l
0 396 l
cl
1.000 setgray
fill
grestore
gsave
76.5 43.56 m
550.8 43.56 l
550.8 348.48 l
76.5 348.48 l
cl
1.000 setgray
fill
grestore
0.800 setlinewidth
1 setlinejoin
0 setlinecap
[] 0 setdash
0.000 setgray
gsave
/o {
gsave
newpath
translate
0.8 setlinewidth
1 setlinejoin

0 setlinecap

0 0 m
0 -3.5 l

gsave
0.000 setgray
fill
grestore
stroke
grestore
} bind def
98.0591 43.56 o
grestore
/DejaVuSans 10.000 selectfont
gsave

94.879403 28.966250 translate
0.000000 rotate
0.000000 0 m /zero glyphshow
grestore
gsave
/o {
gsave
newpath
translate
0.8 setlinewidth
1 setlinejoin

0 setlinecap

0 0 m
0 -3.5 l

gsave
0.000 setgray
fill
grestore
stroke
grestore
} bind def
184.382 43.56 o
grestore
gsave

174.842715 28.966250 translate
0.000000 rotate
0.000000 0 m /two glyphshow
6.362305 0 m /zero glyphshow
12.724609 0 m /zero glyphshow
grestore
gsave
/o {
gsave
newpath
translate
0.8 setlinewidth
1 setlinejoin

0 setlinecap

0 0 m
0 -3.5 l

gsave
0.000 setgray
fill
grestore
stroke
grestore
} bind def
270.704 43.56 o
grestore
gsave

261.165401 28.966250 translate
0.000000 rotate
0.000000 0 m /four glyphshow
6.362305 0 m /zero glyphshow
12.724609 0 m /zero glyphshow
grestore
gsave
/o {
gsave
newpath
translate
0.8 setlinewidth
1 setlinejoin

0 setlinecap

0 0 m
0 -3.5 l

gsave
0.000 setgray
fill
grestore
stroke
grestore
} bind def
357.027 43.56 o
grestore
gsave

347.488087 28.966250 translate
0.000000 rotate
0.000000 0 m /six glyphshow
6.362305 0 m /zero glyphshow
12.724609 0 m /zero glyphshow
grestore
gsave
/o {
gsave
newpath
translate
0.8 setlinewidth
1 setlinejoin

0 setlinecap

0 0 m
0 -3.5 l

gsave
0.000 setgray
fill
grestore
stroke
grestore
} bind def
443.35 43.56 o
grestore
gsave

433.810774 28.966250 translate
0.000000 rotate
0.000000 0 m /eight glyphshow
6.362305 0 m /zero glyphshow
12.724609 0 m /zero glyphshow
grestore
gsave
/o {
gsave
newpath
translate
0.8 setlinewidth
1 setlinejoin

0 setlinecap

0 0 m
0 -3.5 l

gsave
0.000 setgray
fill
grestore
stroke
grestore
} bind def
529.673 43.56 o
grestore
gsave

516.953773 28.966250 translate
0.000000 rotate
0.000000 0 m /one glyphshow
6.362305 0 m /zero glyphshow
12.724609 0 m /zero glyphshow
19.086914 0 m /zero glyphshow
grestore
/TimesNewRomanPSMT 24.000 selectfont
gsave

272.985938 6.216250 translate
0.000000 rotate
0.000000 0 m /I glyphshow
7.992188 0 m /t glyphshow
14.660156 0 m /e glyphshow
25.312500 0 m /r glyphshow
33.304688 0 m /a glyphshow
43.957031 0 m /t glyphshow
50.625000 0 m /i glyphshow
57.292969 0 m /o glyphshow
69.292969 0 m /n glyphshow
grestore
gsave
/o {
gsave
newpath
translate
0.8 setlinewidth
1 setlinejoin

0 setlinecap

-0 0 m
-3.5 0 l

gsave
0.000 setgray
fill
grestore
stroke
grestore
} bind def
76.5 57.42 o
grestore
/DejaVuSans 10.000 selectfont
gsave

63.140625 53.623125 translate
0.000000 rotate
0.000000 0 m /zero glyphshow
grestore
gsave
/o {
gsave
newpath
translate
0.8 setlinewidth
1 setlinejoin

0 setlinecap

-0 0 m
-3.5 0 l

gsave
0.000 setgray
fill
grestore
stroke
grestore
} bind def
76.5 93.6484 o
grestore
gsave

44.062500 89.851546 translate
0.000000 rotate
0.000000 0 m /two glyphshow
6.362305 0 m /zero glyphshow
12.724609 0 m /zero glyphshow
19.086914 0 m /zero glyphshow
grestore
gsave
/o {
gsave
newpath
translate
0.8 setlinewidth
1 setlinejoin

0 setlinecap

-0 0 m
-3.5 0 l

gsave
0.000 setgray
fill
grestore
stroke
grestore
} bind def
76.5 129.877 o
grestore
gsave

44.062500 126.079968 translate
0.000000 rotate
0.000000 0 m /four glyphshow
6.362305 0 m /zero glyphshow
12.724609 0 m /zero glyphshow
19.086914 0 m /zero glyphshow
grestore
gsave
/o {
gsave
newpath
translate
0.8 setlinewidth
1 setlinejoin

0 setlinecap

-0 0 m
-3.5 0 l

gsave
0.000 setgray
fill
grestore
stroke
grestore
} bind def
76.5 166.105 o
grestore
gsave

44.062500 162.308389 translate
0.000000 rotate
0.000000 0 m /six glyphshow
6.362305 0 m /zero glyphshow
12.724609 0 m /zero glyphshow
19.086914 0 m /zero glyphshow
grestore
gsave
/o {
gsave
newpath
translate
0.8 setlinewidth
1 setlinejoin

0 setlinecap

-0 0 m
-3.5 0 l

gsave
0.000 setgray
fill
grestore
stroke
grestore
} bind def
76.5 202.334 o
grestore
gsave

44.062500 198.536811 translate
0.000000 rotate
0.000000 0 m /eight glyphshow
6.362305 0 m /zero glyphshow
12.724609 0 m /zero glyphshow
19.086914 0 m /zero glyphshow
grestore
gsave
/o {
gsave
newpath
translate
0.8 setlinewidth
1 setlinejoin

0 setlinecap

-0 0 m
-3.5 0 l

gsave
0.000 setgray
fill
grestore
stroke
grestore
} bind def
76.5 238.562 o
grestore
gsave

37.703125 234.765232 translate
0.000000 rotate
0.000000 0 m /one glyphshow
6.362305 0 m /zero glyphshow
12.724609 0 m /zero glyphshow
19.086914 0 m /zero glyphshow
25.449219 0 m /zero glyphshow
grestore
gsave
/o {
gsave
newpath
translate
0.8 setlinewidth
1 setlinejoin

0 setlinecap

-0 0 m
-3.5 0 l

gsave
0.000 setgray
fill
grestore
stroke
grestore
} bind def
76.5 274.791 o
grestore
gsave

37.703125 270.993654 translate
0.000000 rotate
0.000000 0 m /one glyphshow
6.362305 0 m /two glyphshow
12.724609 0 m /zero glyphshow
19.086914 0 m /zero glyphshow
25.449219 0 m /zero glyphshow
grestore
gsave
/o {
gsave
newpath
translate
0.8 setlinewidth
1 setlinejoin

0 setlinecap

-0 0 m
-3.5 0 l

gsave
0.000 setgray
fill
grestore
stroke
grestore
} bind def
76.5 311.019 o
grestore
gsave

37.703125 307.222075 translate
0.000000 rotate
0.000000 0 m /one glyphshow
6.362305 0 m /four glyphshow
12.724609 0 m /zero glyphshow
19.086914 0 m /zero glyphshow
25.449219 0 m /zero glyphshow
grestore
gsave
/o {
gsave
newpath
translate
0.8 setlinewidth
1 setlinejoin

0 setlinecap

-0 0 m
-3.5 0 l

gsave
0.000 setgray
fill
grestore
stroke
grestore
} bind def
76.5 347.247 o
grestore
gsave

37.703125 343.450496 translate
0.000000 rotate
0.000000 0 m /one glyphshow
6.362305 0 m /six glyphshow
12.724609 0 m /zero glyphshow
19.086914 0 m /zero glyphshow
25.449219 0 m /zero glyphshow
grestore
/TimesNewRomanPSMT 24.000 selectfont
gsave

28.562500 162.004375 translate
90.000000 rotate
0.000000 0 m /F glyphshow
13.347656 0 m /i glyphshow
20.015625 0 m /t glyphshow
26.683594 0 m /n glyphshow
38.683594 0 m /e glyphshow
49.335938 0 m /s glyphshow
58.675781 0 m /s glyphshow
grestore
1.500 setlinewidth
2 setlinecap
0.122 0.467 0.706 setrgbcolor
gsave
474.3 304.92 76.5 43.56 clipbox
98.059091 334.62 m
98.490704 287.44615 l
98.922318 276.345816 l
99.353931 243.779538 l
99.785545 243.779538 l
100.217158 204.835588 l
100.648771 182.263766 l
101.080385 182.263766 l
101.511998 180.881502 l
101.943612 166.327018 l
102.375225 166.327018 l
102.806839 153.975216 l
103.238452 148.782096 l
103.670066 147.99326 l
104.101679 147.99326 l
104.533292 140.68611 l
105.396519 140.68611 l
106.259746 132.625011 l
106.69136 131.010725 l
107.122973 125.481356 l
107.554586 125.481356 l
107.9862 89.638888 l
109.28104 89.638888 l
109.712654 76.230747 l
110.57588 76.230747 l
111.007494 72.156736 l
114.028788 72.156736 l
114.892015 71.61228 l
115.755242 71.439324 l
117.913309 71.385152 l
118.344922 69.355646 l
119.208149 69.355646 l
119.639762 65.069643 l
121.366216 65.069643 l
121.79783 64.707051 l
122.229443 63.938888 l
127.408804 63.871553 l
128.272031 63.751151 l
128.703645 61.12505 l
129.135258 60.397121 l
131.724939 60.397121 l
132.156552 60.153707 l
133.451392 60.067761 l
134.314619 59.996703 l
139.925594 59.980231 l
140.357207 59.564193 l
141.652048 59.564193 l
142.083661 59.347486 l
143.378501 59.297718 l
145.104955 59.236616 l
145.536568 58.865283 l
146.399795 58.808121 l
146.831409 57.932255 l
147.263022 57.690686 l
155.895291 57.582176 l
163.232719 57.551134 l
184.381777 57.442608 l
188.266298 57.429903 l
529.240909 57.42 l
529.240909 57.42 l
stroke
grestore
0.800 setlinewidth
0 setlinejoin
0.000 setgray
gsave
76.5 43.56 m
76.5 348.48 l
stroke
grestore
gsave
550.8 43.56 m
550.8 348.48 l
stroke
grestore
gsave
76.5 43.56 m
550.8 43.56 l
stroke
grestore
gsave
76.5 348.48 m
550.8 348.48 l
stroke
grestore

end
showpage
