%!PS-Adobe-3.0 EPSF-3.0
%%Title: PSO_II_inertia_weight.eps
%%Creator: Matplotlib v3.5.3, https://matplotlib.org/
%%CreationDate: Thu Jan 12 15:06:58 2023
%%Orientation: portrait
%%BoundingBox: 0 198 612 594
%%HiResBoundingBox: 0.000000 198.000000 612.000000 594.000000
%%EndComments
%%BeginProlog
/mpldict 12 dict def
mpldict begin
/_d { bind def } bind def
/m { moveto } _d
/l { lineto } _d
/r { rlineto } _d
/c { curveto } _d
/cl { closepath } _d
/ce { closepath eofill } _d
/box {
      m
      1 index 0 r
      0 exch r
      neg 0 r
      cl
    } _d
/clipbox {
      box
      clip
      newpath
    } _d
/sc { setcachedevice } _d
%!PS-Adobe-3.0 Resource-Font
%%Creator: Converted from TrueType to Type 3 by Matplotlib.
10 dict begin
/FontName /DejaVuSans def
/PaintType 0 def
/FontMatrix [0.00048828125 0 0 0.00048828125 0 0] def
/FontBBox [-2090 -948 3673 2524] def
/FontType 3 def
/Encoding [/zero /one /two /minus /four /six /eight] def
/CharStrings 8 dict dup begin
/.notdef 0 def
/zero{1303 0 135 -29 1167 1520 sc
651 1360 m
547 1360 469 1309 416 1206 c
364 1104 338 950 338 745 c
338 540 364 387 416 284 c
469 182 547 131 651 131 c
756 131 834 182 886 284 c
939 387 965 540 965 745 c
965 950 939 1104 886 1206 c
834 1309 756 1360 651 1360 c

651 1520 m
818 1520 946 1454 1034 1321 c
1123 1189 1167 997 1167 745 c
1167 494 1123 302 1034 169 c
946 37 818 -29 651 -29 c
484 -29 356 37 267 169 c
179 302 135 494 135 745 c
135 997 179 1189 267 1321 c
356 1454 484 1520 651 1520 c

ce} _d
/one{1303 0 225 0 1114 1493 sc
254 170 m
584 170 l
584 1309 l
225 1237 l
225 1421 l
582 1493 l
784 1493 l
784 170 l
1114 170 l
1114 0 l
254 0 l
254 170 l

ce} _d
/two{1303 0 150 0 1098 1520 sc
393 170 m
1098 170 l
1098 0 l
150 0 l
150 170 l
227 249 331 356 463 489 c
596 623 679 709 713 748 c
778 821 823 882 848 932 c
874 983 887 1032 887 1081 c
887 1160 859 1225 803 1275 c
748 1325 675 1350 586 1350 c
523 1350 456 1339 385 1317 c
315 1295 240 1262 160 1217 c
160 1421 l
241 1454 317 1478 388 1495 c
459 1512 523 1520 582 1520 c
737 1520 860 1481 952 1404 c
1044 1327 1090 1223 1090 1094 c
1090 1033 1078 974 1055 919 c
1032 864 991 800 930 725 c
913 706 860 650 771 557 c
682 465 556 336 393 170 c

ce} _d
/minus{1716 0 217 557 1499 727 sc
217 727 m
1499 727 l
1499 557 l
217 557 l
217 727 l

ce} _d
/four{1303 0 100 0 1188 1493 sc
774 1317 m
264 520 l
774 520 l
774 1317 l

721 1493 m
975 1493 l
975 520 l
1188 520 l
1188 352 l
975 352 l
975 0 l
774 0 l
774 352 l
100 352 l
100 547 l
721 1493 l

ce} _d
/six{1303 0 143 -29 1174 1520 sc
676 827 m
585 827 513 796 460 734 c
407 672 381 587 381 479 c
381 372 407 287 460 224 c
513 162 585 131 676 131 c
767 131 838 162 891 224 c
944 287 971 372 971 479 c
971 587 944 672 891 734 c
838 796 767 827 676 827 c

1077 1460 m
1077 1276 l
1026 1300 975 1318 923 1331 c
872 1344 821 1350 770 1350 c
637 1350 535 1305 464 1215 c
394 1125 354 989 344 807 c
383 865 433 909 492 940 c
551 971 617 987 688 987 c
838 987 956 941 1043 850 c
1130 759 1174 636 1174 479 c
1174 326 1129 203 1038 110 c
947 17 827 -29 676 -29 c
503 -29 371 37 280 169 c
189 302 143 494 143 745 c
143 981 199 1169 311 1309 c
423 1450 573 1520 762 1520 c
813 1520 864 1515 915 1505 c
967 1495 1021 1480 1077 1460 c

ce} _d
/eight{1303 0 139 -29 1163 1520 sc
651 709 m
555 709 479 683 424 632 c
369 581 342 510 342 420 c
342 330 369 259 424 208 c
479 157 555 131 651 131 c
747 131 823 157 878 208 c
933 260 961 331 961 420 c
961 510 933 581 878 632 c
823 683 748 709 651 709 c

449 795 m
362 816 295 857 246 916 c
198 975 174 1048 174 1133 c
174 1252 216 1347 301 1416 c
386 1485 503 1520 651 1520 c
800 1520 916 1485 1001 1416 c
1086 1347 1128 1252 1128 1133 c
1128 1048 1104 975 1055 916 c
1007 857 940 816 854 795 c
951 772 1027 728 1081 662 c
1136 596 1163 515 1163 420 c
1163 275 1119 164 1030 87 c
942 10 816 -29 651 -29 c
486 -29 360 10 271 87 c
183 164 139 275 139 420 c
139 515 166 596 221 662 c
276 728 352 772 449 795 c

375 1114 m
375 1037 399 976 447 933 c
496 890 564 868 651 868 c
738 868 805 890 854 933 c
903 976 928 1037 928 1114 c
928 1191 903 1252 854 1295 c
805 1338 738 1360 651 1360 c
564 1360 496 1338 447 1295 c
399 1252 375 1191 375 1114 c

ce} _d
end readonly def

/BuildGlyph {
 exch begin
 CharStrings exch
 2 copy known not {pop /.notdef} if
 true 3 1 roll get exec
 end
} _d

/BuildChar {
 1 index /Encoding get exch get
 1 index /BuildGlyph get exec
} _d

FontName currentdict end definefont pop
%!PS-Adobe-3.0 Resource-Font
%%Creator: Converted from TrueType to Type 3 by Matplotlib.
10 dict begin
/FontName /TimesNewRomanPSMT def
/PaintType 0 def
/FontMatrix [0.00048828125 0 0 0.00048828125 0 0] def
/FontBBox [-1164 -628 4096 2062] def
/FontType 3 def
/Encoding [/space /a /e /g /h /I /i /n /o /r /t /W] def
/CharStrings 13 dict dup begin
/.notdef 0 def
/space{512 0 0 0 0 0 sc
ce} _d
/a{909 0 73 -19 905 943 sc
583 132 m
489 59 430 17 406 6 c
370 -11 332 -19 291 -19 c
228 -19 175 3 134 46 c
93 89 73 146 73 217 c
73 262 83 300 103 333 c
130 378 178 421 245 461 c
313 501 426 550 583 607 c
583 643 l
583 734 568 797 539 831 c
510 865 468 882 413 882 c
371 882 338 871 313 848 c
288 825 275 799 275 770 c
277 712 l
277 681 269 658 253 641 c
238 624 217 616 192 616 c
167 616 147 625 131 642 c
116 659 108 683 108 713 c
108 770 137 823 196 871 c
255 919 337 943 443 943 c
524 943 591 929 643 902 c
682 881 711 849 730 805 c
742 776 748 718 748 629 c
748 318 l
748 231 750 177 753 157 c
756 138 762 125 769 118 c
777 111 786 108 796 108 c
807 108 816 110 824 115 c
838 124 865 148 905 188 c
905 132 l
830 32 759 -18 691 -18 c
658 -18 632 -7 613 16 c
594 39 584 77 583 132 c

583 197 m
583 546 l
482 506 417 478 388 461 c
335 432 298 401 275 369 c
252 337 241 302 241 264 c
241 216 255 176 284 144 c
313 113 346 97 383 97 c
434 97 500 130 583 197 c

ce} _d
/e{909 0 76 -28 851 944 sc
218 571 m
217 435 250 328 317 251 c
384 174 462 135 552 135 c
612 135 664 151 708 184 c
753 217 790 274 820 354 c
851 334 l
837 243 796 159 729 84 c
662 9 577 -28 476 -28 c
366 -28 272 15 193 100 c
115 186 76 301 76 446 c
76 603 116 725 196 812 c
277 900 378 944 499 944 c
602 944 686 910 752 842 c
818 775 851 684 851 571 c
218 571 l

218 629 m
642 629 l
639 688 632 729 621 753 c
604 790 579 820 546 841 c
513 862 479 873 443 873 c
388 873 338 851 294 808 c
251 765 225 706 218 629 c

ce} _d
/g{1024 0 61 -442 987 943 sc
309 334 m
253 361 210 399 180 448 c
150 497 135 552 135 611 c
135 702 169 780 237 845 c
306 910 393 943 500 943 c
587 943 663 922 727 879 c
921 879 l
950 879 966 878 971 876 c
976 875 979 872 981 868 c
985 862 987 851 987 836 c
987 819 985 807 982 800 c
980 797 976 794 971 792 c
966 790 950 789 921 789 c
802 789 l
839 741 858 680 858 605 c
858 520 825 447 760 386 c
695 325 607 295 497 295 c
452 295 405 302 358 315 c
329 290 309 267 298 248 c
288 229 283 213 283 200 c
283 189 288 178 299 167 c
310 156 332 149 364 144 c
383 141 429 139 504 137 c
641 134 730 129 771 123 c
833 114 882 91 919 54 c
956 17 975 -29 975 -84 c
975 -159 940 -230 869 -296 c
765 -393 629 -442 462 -442 c
333 -442 225 -413 136 -355 c
86 -322 61 -287 61 -251 c
61 -235 65 -219 72 -203 c
83 -178 107 -144 142 -100 c
147 -94 181 -58 244 8 c
209 29 185 47 170 63 c
156 80 149 98 149 119 c
149 142 158 170 177 201 c
196 232 240 277 309 334 c

483 895 m
434 895 392 875 359 836 c
326 797 309 736 309 655 c
309 550 332 468 377 410 c
412 366 456 344 509 344 c
560 344 601 363 634 401 c
667 439 683 499 683 580 c
683 686 660 769 614 829 c
580 873 536 895 483 895 c

299 0 m
268 -34 244 -66 228 -95 c
212 -124 204 -151 204 -176 c
204 -208 223 -236 262 -260 c
329 -301 425 -322 551 -322 c
671 -322 759 -301 816 -258 c
873 -216 902 -171 902 -123 c
902 -88 885 -64 851 -49 c
816 -34 748 -26 645 -23 c
495 -19 380 -11 299 0 c

ce} _d
/h{1024 0 13 0 1011 1422 sc
333 1422 m
333 752 l
407 833 466 885 509 908 c
552 931 596 943 639 943 c
691 943 736 929 773 900 c
810 871 838 826 856 765 c
869 722 875 644 875 531 c
875 207 l
875 149 880 109 889 88 c
896 72 907 59 923 50 c
939 41 968 36 1011 36 c
1011 0 l
561 0 l
561 36 l
582 36 l
625 36 654 42 671 55 c
688 68 699 88 706 113 c
708 124 709 155 709 207 c
709 531 l
709 631 704 697 693 728 c
683 759 667 783 644 798 c
621 814 594 822 562 822 c
529 822 495 813 460 796 c
425 779 382 744 333 691 c
333 207 l
333 144 336 105 343 90 c
350 75 363 62 382 51 c
401 41 434 36 481 36 c
481 0 l
27 0 l
27 36 l
68 36 100 42 123 55 c
136 62 147 74 155 93 c
163 112 167 150 167 207 c
167 1036 l
167 1141 164 1205 159 1229 c
154 1253 147 1269 136 1278 c
126 1287 112 1291 95 1291 c
81 1291 58 1286 27 1275 c
13 1310 l
287 1422 l
333 1422 l

ce} _d
/I{682 0 51 0 632 1356 sc
632 37 m
632 0 l
51 0 l
51 37 l
99 37 l
155 37 196 53 221 86 c
237 107 245 159 245 240 c
245 1116 l
245 1185 241 1230 232 1252 c
225 1269 212 1283 191 1295 c
162 1311 131 1319 99 1319 c
51 1319 l
51 1356 l
632 1356 l
632 1319 l
583 1319 l
528 1319 487 1303 462 1270 c
445 1249 437 1197 437 1116 c
437 240 l
437 171 441 126 450 104 c
457 87 471 73 492 61 c
521 45 551 37 583 37 c
632 37 l

ce} _d
/i{569 0 60 0 519 1422 sc
297 1422 m
325 1422 349 1412 368 1392 c
388 1373 398 1349 398 1321 c
398 1293 388 1269 368 1249 c
349 1229 325 1219 297 1219 c
269 1219 245 1229 225 1249 c
205 1269 195 1293 195 1321 c
195 1349 205 1373 224 1392 c
244 1412 268 1422 297 1422 c

380 943 m
380 207 l
380 150 384 111 392 92 c
401 73 413 59 429 50 c
446 41 476 36 519 36 c
519 0 l
74 0 l
74 36 l
119 36 149 40 164 49 c
179 58 191 72 200 92 c
209 112 214 150 214 207 c
214 560 l
214 659 211 724 205 753 c
200 774 193 789 183 797 c
173 806 159 810 142 810 c
123 810 101 805 74 795 c
60 831 l
336 943 l
380 943 l

ce} _d
/n{1024 0 12 0 1015 943 sc
331 749 m
438 878 541 943 638 943 c
688 943 731 930 767 905 c
803 880 832 839 853 782 c
868 742 875 681 875 598 c
875 207 l
875 149 880 110 889 89 c
896 72 908 59 924 50 c
941 41 971 36 1015 36 c
1015 0 l
562 0 l
562 36 l
581 36 l
624 36 653 42 670 55 c
687 68 699 88 706 113 c
709 123 710 154 710 207 c
710 582 l
710 665 699 726 677 763 c
656 801 619 820 568 820 c
489 820 410 777 331 690 c
331 207 l
331 145 335 107 342 92 c
351 73 364 58 380 49 c
397 40 430 36 480 36 c
480 0 l
27 0 l
27 36 l
47 36 l
94 36 125 48 141 71 c
158 95 166 140 166 207 c
166 547 l
166 657 163 724 158 748 c
153 772 146 788 135 797 c
125 806 111 810 94 810 c
75 810 53 805 27 795 c
12 831 l
288 943 l
331 943 l
331 749 l

ce} _d
/o{1024 0 69 -28 953 943 sc
512 943 m
651 943 762 890 846 785 c
917 695 953 592 953 475 c
953 393 933 310 894 226 c
855 142 800 79 731 36 c
662 -7 586 -28 501 -28 c
363 -28 253 27 172 137 c
103 230 69 334 69 449 c
69 533 90 616 131 699 c
173 782 228 844 296 883 c
364 923 436 943 512 943 c

481 878 m
446 878 410 867 374 846 c
339 825 310 789 288 736 c
266 683 255 616 255 533 c
255 400 281 285 334 188 c
387 91 457 43 544 43 c
609 43 662 70 704 123 c
746 176 767 268 767 398 c
767 561 732 689 662 782 c
615 846 554 878 481 878 c

ce} _d
/r{682 0 13 0 695 943 sc
332 943 m
332 737 l
409 874 487 943 568 943 c
605 943 635 932 659 909 c
683 887 695 861 695 832 c
695 806 686 784 669 766 c
652 748 631 739 607 739 c
584 739 557 750 528 773 c
499 796 478 808 464 808 c
452 808 439 801 425 788 c
395 761 364 716 332 653 c
332 214 l
332 163 338 125 351 99 c
360 81 375 66 397 54 c
419 42 451 36 492 36 c
492 0 l
23 0 l
23 36 l
70 36 104 43 127 58 c
144 69 155 86 162 109 c
165 120 167 153 167 206 c
167 561 l
167 668 165 731 160 751 c
156 772 148 787 136 796 c
125 805 110 810 93 810 c
72 810 49 805 23 795 c
13 831 l
290 943 l
332 943 l

ce} _d
/t{569 0 20 -15 572 1217 sc
330 1217 m
330 916 l
544 916 l
544 846 l
330 846 l
330 252 l
330 193 338 153 355 132 c
372 111 394 101 421 101 c
443 101 464 108 485 121 c
506 135 522 155 533 182 c
572 182 l
549 117 516 67 473 34 c
430 1 386 -15 341 -15 c
310 -15 280 -7 251 10 c
222 27 200 52 186 83 c
172 115 165 164 165 230 c
165 846 l
20 846 l
20 879 l
57 894 94 918 132 953 c
171 988 205 1030 235 1078 c
250 1103 272 1150 299 1217 c
330 1217 l

ce} _d
/W{1933 0 27 -31 1917 1356 sc
1917 1356 m
1917 1319 l
1882 1319 1853 1313 1831 1300 c
1809 1287 1788 1264 1768 1229 c
1755 1206 1734 1150 1705 1062 c
1327 -31 l
1287 -31 l
978 836 l
671 -31 l
635 -31 l
232 1095 l
202 1179 183 1229 175 1244 c
162 1269 143 1288 120 1300 c
97 1313 66 1319 27 1319 c
27 1356 l
529 1356 l
529 1319 l
505 1319 l
470 1319 443 1311 424 1295 c
405 1279 396 1260 396 1237 c
396 1214 411 1160 440 1076 c
707 315 l
932 962 l
892 1076 l
860 1167 l
846 1200 830 1230 813 1255 c
804 1268 794 1278 781 1287 c
764 1299 748 1308 731 1313 c
718 1317 698 1319 671 1319 c
671 1356 l
1199 1356 l
1199 1319 l
1163 1319 l
1126 1319 1098 1311 1081 1295 c
1064 1279 1055 1257 1055 1230 c
1055 1196 1070 1137 1100 1052 c
1360 315 l
1618 1062 l
1647 1145 1662 1202 1662 1234 c
1662 1249 1657 1264 1647 1277 c
1638 1290 1626 1300 1611 1305 c
1586 1314 1553 1319 1512 1319 c
1512 1356 l
1917 1356 l

ce} _d
end readonly def

/BuildGlyph {
 exch begin
 CharStrings exch
 2 copy known not {pop /.notdef} if
 true 3 1 roll get exec
 end
} _d

/BuildChar {
 1 index /Encoding get exch get
 1 index /BuildGlyph get exec
} _d

FontName currentdict end definefont pop
end
%%EndProlog
mpldict begin
0 198 translate
612 396 0 0 clipbox
gsave
0 0 m
612 0 l
612 396 l
0 396 l
cl
1.000 setgray
fill
grestore
gsave
76.5 43.56 m
550.8 43.56 l
550.8 348.48 l
76.5 348.48 l
cl
1.000 setgray
fill
grestore
0.800 setlinewidth
1 setlinejoin
0 setlinecap
[] 0 setdash
0.000 setgray
gsave
/o {
gsave
newpath
translate
0.8 setlinewidth
1 setlinejoin

0 setlinecap

0 0 m
0 -3.5 l

gsave
0.000 setgray
fill
grestore
stroke
grestore
} bind def
98.0591 43.56 o
grestore
/DejaVuSans 10.000 selectfont
gsave

94.879403 28.966250 translate
0.000000 rotate
0.000000 0 m /zero glyphshow
grestore
gsave
/o {
gsave
newpath
translate
0.8 setlinewidth
1 setlinejoin

0 setlinecap

0 0 m
0 -3.5 l

gsave
0.000 setgray
fill
grestore
stroke
grestore
} bind def
184.382 43.56 o
grestore
gsave

174.842715 28.966250 translate
0.000000 rotate
0.000000 0 m /two glyphshow
6.362305 0 m /zero glyphshow
12.724609 0 m /zero glyphshow
grestore
gsave
/o {
gsave
newpath
translate
0.8 setlinewidth
1 setlinejoin

0 setlinecap

0 0 m
0 -3.5 l

gsave
0.000 setgray
fill
grestore
stroke
grestore
} bind def
270.704 43.56 o
grestore
gsave

261.165401 28.966250 translate
0.000000 rotate
0.000000 0 m /four glyphshow
6.362305 0 m /zero glyphshow
12.724609 0 m /zero glyphshow
grestore
gsave
/o {
gsave
newpath
translate
0.8 setlinewidth
1 setlinejoin

0 setlinecap

0 0 m
0 -3.5 l

gsave
0.000 setgray
fill
grestore
stroke
grestore
} bind def
357.027 43.56 o
grestore
gsave

347.488087 28.966250 translate
0.000000 rotate
0.000000 0 m /six glyphshow
6.362305 0 m /zero glyphshow
12.724609 0 m /zero glyphshow
grestore
gsave
/o {
gsave
newpath
translate
0.8 setlinewidth
1 setlinejoin

0 setlinecap

0 0 m
0 -3.5 l

gsave
0.000 setgray
fill
grestore
stroke
grestore
} bind def
443.35 43.56 o
grestore
gsave

433.810774 28.966250 translate
0.000000 rotate
0.000000 0 m /eight glyphshow
6.362305 0 m /zero glyphshow
12.724609 0 m /zero glyphshow
grestore
gsave
/o {
gsave
newpath
translate
0.8 setlinewidth
1 setlinejoin

0 setlinecap

0 0 m
0 -3.5 l

gsave
0.000 setgray
fill
grestore
stroke
grestore
} bind def
529.673 43.56 o
grestore
gsave

516.953773 28.966250 translate
0.000000 rotate
0.000000 0 m /one glyphshow
6.362305 0 m /zero glyphshow
12.724609 0 m /zero glyphshow
19.086914 0 m /zero glyphshow
grestore
/TimesNewRomanPSMT 24.000 selectfont
gsave

272.985938 6.216250 translate
0.000000 rotate
0.000000 0 m /I glyphshow
7.992188 0 m /t glyphshow
14.660156 0 m /e glyphshow
25.312500 0 m /r glyphshow
33.304688 0 m /a glyphshow
43.957031 0 m /t glyphshow
50.625000 0 m /i glyphshow
57.292969 0 m /o glyphshow
69.292969 0 m /n glyphshow
grestore
gsave
/o {
gsave
newpath
translate
0.8 setlinewidth
1 setlinejoin

0 setlinecap

-0 0 m
-3.5 0 l

gsave
0.000 setgray
fill
grestore
stroke
grestore
} bind def
76.5 53.4525 o
grestore
/DejaVuSans 10.000 selectfont
gsave

29.328125 49.655583 translate
0.000000 rotate
0.000000 0 m /minus glyphshow
8.378906 0 m /eight glyphshow
14.741211 0 m /zero glyphshow
21.103516 0 m /zero glyphshow
27.465820 0 m /zero glyphshow
33.828125 0 m /zero glyphshow
grestore
gsave
/o {
gsave
newpath
translate
0.8 setlinewidth
1 setlinejoin

0 setlinecap

-0 0 m
-3.5 0 l

gsave
0.000 setgray
fill
grestore
stroke
grestore
} bind def
76.5 91.8086 o
grestore
gsave

29.328125 88.011721 translate
0.000000 rotate
0.000000 0 m /minus glyphshow
8.378906 0 m /six glyphshow
14.741211 0 m /zero glyphshow
21.103516 0 m /zero glyphshow
27.465820 0 m /zero glyphshow
33.828125 0 m /zero glyphshow
grestore
gsave
/o {
gsave
newpath
translate
0.8 setlinewidth
1 setlinejoin

0 setlinecap

-0 0 m
-3.5 0 l

gsave
0.000 setgray
fill
grestore
stroke
grestore
} bind def
76.5 130.165 o
grestore
gsave

29.328125 126.367859 translate
0.000000 rotate
0.000000 0 m /minus glyphshow
8.378906 0 m /four glyphshow
14.741211 0 m /zero glyphshow
21.103516 0 m /zero glyphshow
27.465820 0 m /zero glyphshow
33.828125 0 m /zero glyphshow
grestore
gsave
/o {
gsave
newpath
translate
0.8 setlinewidth
1 setlinejoin

0 setlinecap

-0 0 m
-3.5 0 l

gsave
0.000 setgray
fill
grestore
stroke
grestore
} bind def
76.5 168.521 o
grestore
gsave

29.328125 164.723998 translate
0.000000 rotate
0.000000 0 m /minus glyphshow
8.378906 0 m /two glyphshow
14.741211 0 m /zero glyphshow
21.103516 0 m /zero glyphshow
27.465820 0 m /zero glyphshow
33.828125 0 m /zero glyphshow
grestore
gsave
/o {
gsave
newpath
translate
0.8 setlinewidth
1 setlinejoin

0 setlinecap

-0 0 m
-3.5 0 l

gsave
0.000 setgray
fill
grestore
stroke
grestore
} bind def
76.5 206.877 o
grestore
gsave

63.140625 203.080136 translate
0.000000 rotate
0.000000 0 m /zero glyphshow
grestore
gsave
/o {
gsave
newpath
translate
0.8 setlinewidth
1 setlinejoin

0 setlinecap

-0 0 m
-3.5 0 l

gsave
0.000 setgray
fill
grestore
stroke
grestore
} bind def
76.5 245.233 o
grestore
gsave

37.703125 241.436274 translate
0.000000 rotate
0.000000 0 m /two glyphshow
6.362305 0 m /zero glyphshow
12.724609 0 m /zero glyphshow
19.086914 0 m /zero glyphshow
25.449219 0 m /zero glyphshow
grestore
gsave
/o {
gsave
newpath
translate
0.8 setlinewidth
1 setlinejoin

0 setlinecap

-0 0 m
-3.5 0 l

gsave
0.000 setgray
fill
grestore
stroke
grestore
} bind def
76.5 283.589 o
grestore
gsave

37.703125 279.792412 translate
0.000000 rotate
0.000000 0 m /four glyphshow
6.362305 0 m /zero glyphshow
12.724609 0 m /zero glyphshow
19.086914 0 m /zero glyphshow
25.449219 0 m /zero glyphshow
grestore
gsave
/o {
gsave
newpath
translate
0.8 setlinewidth
1 setlinejoin

0 setlinecap

-0 0 m
-3.5 0 l

gsave
0.000 setgray
fill
grestore
stroke
grestore
} bind def
76.5 321.945 o
grestore
gsave

37.703125 318.148550 translate
0.000000 rotate
0.000000 0 m /six glyphshow
6.362305 0 m /zero glyphshow
12.724609 0 m /zero glyphshow
19.086914 0 m /zero glyphshow
25.449219 0 m /zero glyphshow
grestore
/TimesNewRomanPSMT 24.000 selectfont
gsave

20.140625 127.488750 translate
90.000000 rotate
0.000000 0 m /I glyphshow
7.992188 0 m /n glyphshow
19.992188 0 m /e glyphshow
30.644531 0 m /r glyphshow
38.636719 0 m /t glyphshow
45.304688 0 m /i glyphshow
51.972656 0 m /a glyphshow
62.625000 0 m /space glyphshow
68.250000 0 m /W glyphshow
89.027344 0 m /e glyphshow
99.679688 0 m /i glyphshow
106.347656 0 m /g glyphshow
118.347656 0 m /h glyphshow
130.347656 0 m /t glyphshow
grestore
1.500 setlinewidth
2 setlinecap
0.122 0.467 0.706 setrgbcolor
gsave
474.3 304.92 76.5 43.56 clipbox
98.059091 211.793489 m
98.490704 206.739364 l
98.922318 198.479516 l
99.353931 208.512844 l
99.785545 207.732709 l
100.217158 227.936508 l
100.648771 187.728402 l
101.080385 198.415845 l
101.511998 217.349472 l
101.943612 203.749036 l
102.375225 214.8076 l
102.806839 197.650228 l
103.238452 204.526655 l
103.670066 223.631795 l
104.101679 188.957242 l
104.533292 214.401901 l
104.964906 194.344723 l
105.396519 228.725373 l
105.828133 190.067824 l
106.69136 197.848642 l
107.122973 277.441293 l
107.554586 176.784136 l
107.9862 147.47368 l
108.417813 265.662657 l
109.28104 160.74674 l
109.712654 221.731586 l
110.144267 237.938971 l
110.57588 192.102527 l
111.007494 175.988318 l
111.439107 260.181311 l
111.870721 183.299684 l
112.302334 225.759283 l
113.165561 166.539429 l
113.597174 287.855351 l
114.028788 57.42 l
114.460401 334.62 l
114.892015 219.985116 l
115.323628 135.171276 l
115.755242 254.401586 l
116.618468 163.410619 l
117.050082 237.699314 l
117.481695 208.230084 l
117.913309 212.044457 l
118.344922 178.765396 l
118.776536 250.726474 l
119.208149 187.764509 l
119.639762 190.004032 l
120.071376 236.266911 l
120.502989 191.265695 l
120.934603 186.488758 l
121.366216 237.570011 l
121.79783 197.013059 l
122.229443 212.938363 l
122.661057 210.262711 l
123.09267 190.108529 l
123.524283 221.055613 l
123.955897 176.572537 l
124.38751 236.729169 l
124.819124 232.206339 l
125.250737 132.023008 l
125.682351 242.94389 l
126.113964 246.813826 l
126.545577 152.396374 l
126.977191 257.483962 l
127.408804 151.429802 l
127.840418 223.530504 l
128.272031 208.530445 l
128.703645 218.331125 l
129.135258 203.516796 l
129.566871 196.599561 l
129.998485 224.443413 l
130.430098 186.864212 l
130.861712 211.262232 l
131.293325 222.832575 l
131.724939 182.775488 l
132.156552 247.780727 l
132.588165 178.600743 l
133.019779 197.472229 l
133.451392 221.934458 l
133.883006 220.028146 l
134.314619 181.595656 l
134.746233 207.119218 l
135.177846 225.474559 l
135.609459 215.555466 l
136.041073 187.410297 l
136.472686 194.175562 l
136.9043 231.004606 l
137.335913 193.006214 l
137.767527 224.134714 l
138.19914 175.53736 l
138.630753 218.608255 l
139.062367 225.030999 l
139.49398 194.811334 l
139.925594 198.122653 l
140.357207 216.173327 l
141.220434 193.980468 l
141.652048 238.953721 l
142.515274 170.050412 l
142.946888 239.169274 l
143.378501 212.088205 l
143.810115 176.468061 l
144.241728 216.483658 l
144.673342 214.629579 l
145.104955 208.608252 l
145.536568 196.100876 l
145.968182 213.179784 l
146.399795 207.320584 l
146.831409 206.42326 l
147.263022 206.0723 l
147.694636 205.032298 l
148.126249 211.509886 l
148.557862 195.727053 l
148.989476 215.72175 l
149.421089 206.886761 l
149.852703 213.434873 l
150.284316 187.968765 l
150.71593 228.636498 l
151.147543 201.060318 l
151.579156 198.543827 l
152.01077 194.41962 l
152.442383 239.72502 l
152.873997 185.272889 l
153.737224 222.888151 l
154.168837 199.175748 l
154.60045 205.885386 l
155.032064 207.769543 l
155.463677 211.317695 l
155.895291 193.803182 l
156.326904 214.879306 l
156.758518 212.700834 l
157.190131 207.85991 l
157.621744 198.498083 l
158.053358 201.668096 l
158.484971 213.106329 l
158.916585 207.265402 l
159.348198 205.983763 l
159.779812 207.991564 l
160.211425 207.365619 l
160.643038 212.474312 l
161.074652 205.361946 l
161.506265 192.009106 l
161.937879 215.511997 l
162.369492 209.306353 l
162.801106 193.858766 l
163.232719 211.537542 l
163.664333 235.372267 l
164.095946 174.55363 l
164.527559 209.387368 l
164.959173 219.914482 l
165.390786 195.268014 l
165.8224 215.895891 l
166.254013 216.721634 l
166.685627 190.943924 l
167.11724 201.028322 l
167.548853 222.819674 l
167.980467 199.411857 l
168.41208 196.596684 l
168.843694 226.82896 l
169.275307 197.722902 l
169.706921 200.799952 l
170.138534 220.192605 l
170.570147 197.923641 l
171.001761 212.201695 l
171.433374 210.186732 l
171.864988 187.188657 l
172.296601 213.589819 l
172.728215 216.425997 l
173.159828 201.895956 l
174.023055 209.507615 l
174.454668 211.12565 l
174.886282 198.856471 l
175.317895 212.504205 l
175.749509 209.391898 l
176.181122 197.796715 l
176.612735 211.472785 l
177.044349 214.757332 l
177.475962 199.193128 l
177.907576 200.601266 l
178.339189 208.894823 l
178.770803 213.941698 l
179.202416 202.665669 l
179.634029 197.40641 l
180.065643 229.226308 l
180.497256 197.834791 l
180.92887 204.722882 l
181.360483 214.610294 l
181.792097 204.98433 l
182.22371 190.852658 l
182.655324 222.42411 l
183.51855 191.54485 l
183.950164 210.016631 l
184.381777 216.892789 l
184.813391 208.477064 l
185.245004 193.90086 l
185.676618 218.53692 l
186.108231 196.186754 l
186.539844 219.372987 l
186.971458 192.038135 l
187.403071 220.953414 l
187.834685 203.870615 l
188.266298 204.139222 l
188.697912 212.308226 l
189.129525 210.569441 l
189.561138 187.448825 l
190.424365 226.405149 l
190.855979 201.179846 l
191.287592 195.984667 l
191.719206 215.109275 l
192.150819 210.740059 l
192.582432 185.149824 l
193.014046 232.062918 l
193.445659 207.101057 l
193.877273 188.970248 l
194.308886 212.161315 l
194.7405 214.35568 l
195.172113 206.123127 l
195.603726 207.583258 l
196.03534 207.612925 l
196.466953 199.132262 l
196.898567 202.480378 l
197.33018 215.412844 l
197.761794 209.541068 l
198.193407 207.269756 l
198.62502 194.766641 l
199.488247 220.576716 l
199.919861 201.136588 l
200.351474 206.243508 l
200.783088 202.614617 l
201.214701 213.272584 l
201.646314 207.090223 l
202.077928 203.812326 l
202.509541 212.351802 l
202.941155 194.997632 l
203.372768 220.655984 l
204.235995 191.444234 l
204.667609 216.165843 l
205.099222 217.719528 l
205.530835 192.187912 l
205.962449 211.922645 l
206.394062 208.604226 l
206.825676 203.701791 l
207.257289 210.181924 l
207.688903 202.715495 l
208.120516 207.28095 l
208.552129 202.537244 l
208.983743 209.33174 l
209.415356 214.203316 l
209.84697 197.02483 l
210.278583 203.662443 l
210.710197 217.835371 l
211.14181 210.547624 l
211.573423 198.916642 l
212.005037 203.954567 l
212.43665 213.75841 l
212.868264 212.316335 l
213.299877 190.198404 l
213.731491 222.496297 l
214.594717 193.747571 l
215.026331 200.687758 l
215.457944 223.129033 l
215.889558 184.2102 l
216.321171 229.284197 l
216.752785 211.39011 l
217.184398 186.624933 l
217.616011 209.317402 l
218.047625 215.354607 l
218.479238 212.704172 l
218.910852 179.378101 l
219.342465 240.053268 l
219.774079 203.876965 l
220.205692 196.781331 l
220.637305 210.389465 l
221.068919 212.055307 l
221.500532 202.150068 l
221.932146 201.282563 l
222.363759 218.645852 l
222.795373 192.453085 l
223.226986 212.123521 l
223.6586 202.538392 l
224.090213 214.138278 l
224.521826 210.362678 l
224.95344 188.521658 l
225.385053 221.335107 l
225.816667 211.049424 l
226.24828 198.059005 l
226.679894 212.153254 l
227.111507 205.312318 l
227.54312 201.365114 l
227.974734 220.891847 l
228.406347 195.052833 l
228.837961 206.740076 l
229.269574 209.211763 l
229.701188 201.08845 l
230.132801 216.023254 l
230.996028 194.344932 l
231.427641 221.061535 l
231.859255 216.060604 l
232.290868 188.247141 l
232.722482 216.008791 l
233.154095 214.40149 l
233.585708 196.71549 l
234.017322 201.404177 l
234.448935 217.221314 l
234.880549 200.131963 l
235.312162 212.816453 l
235.743776 198.991132 l
236.175389 211.293132 l
236.607002 216.038071 l
237.038616 193.113504 l
237.470229 220.098896 l
237.901843 189.211824 l
238.333456 234.026937 l
238.76507 201.460054 l
239.196683 206.156238 l
239.628296 184.001432 l
240.05991 232.795675 l
240.491523 222.982524 l
240.923137 170.088745 l
241.35475 205.35572 l
241.786364 190.554751 l
242.217977 244.546666 l
242.64959 201.786285 l
243.081204 186.775247 l
243.512817 223.378241 l
244.376044 196.43484 l
244.807658 208.855746 l
245.239271 204.612991 l
245.670885 218.039605 l
246.102498 199.522249 l
246.534111 205.522023 l
246.965725 206.927758 l
247.397338 210.632911 l
247.828952 199.750084 l
248.260565 206.76086 l
248.692179 215.876135 l
249.123792 199.954538 l
249.555405 208.906193 l
249.987019 215.445208 l
250.418632 188.6606 l
250.850246 216.445078 l
251.281859 211.636248 l
251.713473 208.857595 l
252.145086 194.324016 l
252.576699 218.053256 l
253.008313 202.40853 l
253.87154 206.354006 l
254.303153 205.809469 l
254.734767 209.291528 l
255.16638 209.458255 l
255.597993 202.096844 l
256.029607 215.771536 l
256.46122 202.093537 l
256.892834 205.781918 l
257.324447 214.185723 l
257.756061 199.17723 l
258.187674 198.097378 l
258.619287 221.614576 l
259.050901 195.546762 l
259.482514 217.418875 l
259.914128 208.913614 l
260.345741 208.564016 l
260.777355 196.655409 l
261.208968 205.699709 l
261.640581 222.533487 l
262.072195 199.60833 l
262.935422 202.519888 l
263.367035 219.792215 l
263.798649 209.422651 l
264.230262 190.872819 l
264.661876 216.257997 l
265.093489 200.034489 l
265.525102 207.292881 l
265.956716 209.771817 l
266.388329 199.563458 l
266.819943 220.80861 l
267.251556 192.424536 l
267.68317 212.183061 l
268.114783 214.071551 l
268.546396 198.946836 l
269.409623 215.593636 l
269.841237 196.869295 l
270.27285 208.319905 l
270.704464 208.81885 l
271.136077 211.079458 l
271.56769 200.725582 l
272.430917 212.724897 l
272.862531 203.105594 l
273.294144 208.999759 l
273.725758 203.854436 l
274.157371 208.121894 l
274.588984 208.442415 l
275.020598 205.574304 l
275.452211 206.556386 l
275.883825 207.186947 l
276.315438 202.227233 l
276.747052 217.122839 l
277.178665 193.841939 l
277.610278 216.046654 l
278.041892 204.901385 l
278.473505 208.458487 l
278.905119 205.140446 l
279.336732 204.253278 l
279.768346 210.77731 l
280.199959 200.207965 l
280.631572 211.14786 l
281.063186 210.413132 l
281.494799 203.850755 l
281.926413 205.764622 l
282.358026 212.962385 l
282.78964 196.714365 l
283.221253 214.033487 l
283.652867 209.605037 l
284.08448 197.72105 l
284.516093 204.125089 l
284.947707 216.800928 l
285.810934 198.143611 l
286.242547 219.181832 l
286.674161 198.756192 l
287.105774 201.604004 l
287.537387 214.009325 l
287.969001 209.537102 l
288.400614 203.040862 l
288.832228 202.798637 l
289.263841 211.053878 l
289.695455 203.284702 l
290.558681 211.239781 l
290.990295 204.067519 l
291.421908 209.295945 l
292.285135 204.655226 l
292.716749 204.247825 l
293.148362 213.357505 l
293.579975 202.114686 l
294.011589 211.656611 l
294.443202 200.22696 l
294.874816 213.906341 l
295.306429 203.550624 l
295.738043 204.322579 l
296.169656 214.655643 l
296.601269 196.973412 l
297.032883 214.166802 l
297.464496 206.90692 l
297.89611 203.47817 l
298.327723 206.943586 l
298.759337 205.201956 l
299.19095 211.444089 l
299.622563 203.068825 l
300.054177 211.39016 l
300.48579 200.493027 l
300.917404 209.955712 l
301.349017 208.540297 l
301.780631 204.473672 l
302.212244 208.530896 l
302.643857 208.623625 l
303.075471 202.465567 l
303.507084 206.166711 l
303.938698 206.964605 l
304.370311 215.590983 l
304.801925 201.110287 l
305.233538 206.442661 l
305.665152 207.307712 l
306.096765 210.111091 l
306.528378 199.272376 l
306.959992 211.822276 l
307.391605 207.682074 l
307.823219 208.31801 l
308.254832 199.109441 l
308.686446 216.463144 l
309.118059 200.242375 l
309.549672 209.785422 l
309.981286 204.553461 l
310.412899 208.897755 l
310.844513 207.513684 l
311.276126 203.290801 l
311.70774 210.604769 l
312.139353 206.812969 l
312.570966 200.257883 l
313.00258 215.823986 l
313.434193 204.109946 l
313.865807 206.033915 l
314.29742 203.351767 l
314.729034 212.887544 l
315.160647 202.852145 l
315.59226 209.262982 l
316.023874 204.577029 l
316.455487 208.597683 l
316.887101 208.889186 l
317.318714 202.652131 l
317.750328 209.741361 l
318.181941 205.817083 l
318.613554 209.267331 l
319.045168 201.656321 l
319.476781 207.388444 l
319.908395 210.15679 l
320.771622 204.281032 l
321.203235 211.529975 l
321.634848 202.029999 l
322.066462 208.269734 l
322.498075 206.911869 l
322.929689 207.192157 l
323.361302 203.191765 l
323.792916 213.017454 l
324.224529 203.422355 l
324.656143 208.510818 l
325.087756 206.987307 l
325.519369 204.558991 l
325.950983 208.66969 l
326.81421 205.393793 l
327.245823 207.697324 l
327.677437 206.351401 l
328.10905 208.564497 l
328.540663 205.445386 l
328.972277 207.101609 l
329.40389 207.144047 l
329.835504 205.671898 l
330.267117 208.9307 l
331.130344 204.453942 l
331.561957 209.34829 l
332.425184 205.03382 l
332.856798 207.630113 l
333.288411 207.828171 l
333.720025 205.112862 l
334.151638 207.498846 l
334.583251 205.528148 l
335.014865 210.030752 l
335.446478 208.271883 l
335.878092 201.287681 l
336.309705 210.205615 l
336.741319 205.451451 l
337.172932 209.524705 l
337.604545 201.743866 l
338.036159 211.003403 l
338.467772 206.840681 l
338.899386 198.722897 l
339.330999 221.482013 l
339.762613 202.29005 l
340.194226 197.83137 l
340.625839 214.050472 l
341.057453 207.574455 l
341.489066 205.427681 l
341.92068 205.774859 l
342.352293 206.520617 l
342.783907 207.735391 l
343.21552 205.33663 l
343.647133 212.791051 l
344.078747 197.240794 l
344.51036 210.422228 l
344.941974 214.095535 l
345.373587 204.341641 l
345.805201 204.443508 l
346.236814 204.854788 l
346.668428 211.521063 l
347.100041 202.479278 l
347.963268 209.151194 l
348.394881 206.92794 l
348.826495 205.339015 l
349.258108 209.311943 l
349.689722 205.284772 l
350.121335 208.785507 l
350.552948 205.195467 l
350.984562 203.422776 l
351.416175 208.62373 l
351.847789 208.429142 l
352.279402 207.122377 l
352.711016 207.605167 l
353.142629 203.407792 l
353.574242 212.366888 l
354.005856 205.596662 l
354.437469 201.425825 l
354.869083 211.563163 l
355.300696 210.16038 l
355.73231 201.244588 l
356.163923 207.626241 l
356.595536 207.377234 l
357.02715 208.249707 l
357.458763 207.597158 l
357.890377 204.376286 l
358.32199 207.017362 l
358.753604 207.236108 l
359.185217 210.257024 l
359.61683 198.411742 l
360.048444 218.837635 l
360.480057 198.03813 l
360.911671 209.157494 l
361.343284 207.539973 l
361.774898 207.313376 l
362.206511 206.098907 l
362.638124 205.83179 l
363.069738 209.661554 l
363.501351 206.126648 l
363.932965 204.956961 l
364.364578 208.921134 l
364.796192 203.791869 l
365.227805 209.069442 l
365.659419 207.318747 l
366.091032 204.118392 l
366.522645 211.357989 l
366.954259 204.500577 l
367.385872 204.60187 l
367.817486 209.181848 l
368.249099 205.504868 l
368.680713 211.656773 l
369.112326 202.369531 l
369.543939 207.048997 l
369.975553 209.723425 l
370.407166 201.731154 l
370.83878 212.895835 l
371.270393 201.913057 l
371.702007 207.989325 l
372.13362 210.826508 l
372.565233 201.240559 l
372.996847 207.654393 l
373.42846 210.733108 l
373.860074 204.201199 l
374.291687 207.814544 l
374.723301 203.19905 l
375.154914 211.681465 l
375.586527 206.480584 l
376.018141 204.04943 l
376.449754 208.865709 l
376.881368 208.021589 l
377.312981 205.527889 l
377.744595 206.53899 l
378.176208 210.540828 l
378.607821 202.089898 l
379.039435 207.699724 l
379.471048 208.04253 l
379.902662 207.661611 l
380.334275 204.150603 l
380.765889 208.800346 l
381.197502 208.521267 l
381.629115 203.160668 l
382.060729 209.668754 l
382.492342 202.704613 l
383.355569 210.900143 l
383.787183 211.892006 l
384.218796 195.479032 l
384.65041 208.772073 l
385.082023 217.825017 l
385.513636 198.172233 l
385.94525 203.575952 l
386.376863 212.925131 l
386.808477 206.94629 l
387.24009 205.817822 l
387.671704 203.955801 l
388.103317 208.861922 l
388.53493 209.462929 l
388.966544 202.037818 l
389.398157 209.362244 l
389.829771 207.586127 l
390.261384 206.63545 l
390.692998 204.949004 l
391.124611 207.200144 l
391.556224 210.158019 l
391.987838 205.610881 l
392.419451 203.891463 l
392.851065 209.811953 l
393.282678 205.655285 l
393.714292 206.831734 l
394.145905 208.650829 l
394.577518 205.457547 l
395.009132 207.485059 l
395.440745 206.488305 l
395.872359 207.33137 l
396.303972 205.055172 l
396.735586 209.622403 l
397.167199 205.32546 l
397.598812 205.112591 l
398.030426 207.634563 l
398.462039 209.092811 l
398.893653 206.557912 l
399.325266 205.710987 l
399.75688 207.074327 l
400.188493 209.100746 l
400.620106 205.502227 l
401.05172 203.626659 l
401.483333 212.158558 l
401.914947 204.421883 l
402.34656 203.486115 l
402.778174 212.338884 l
403.209787 204.399466 l
403.6414 206.511191 l
404.073014 207.205476 l
404.504627 206.583942 l
404.936241 207.395331 l
405.367854 206.075804 l
405.799468 208.444369 l
406.231081 206.107134 l
406.662695 206.184844 l
407.094308 208.275094 l
407.525921 205.515418 l
407.957535 207.847558 l
408.389148 207.738122 l
408.820762 204.958705 l
409.252375 206.671566 l
409.683989 209.225933 l
410.115602 204.816931 l
410.547215 205.698904 l
410.978829 207.462088 l
411.410442 210.923361 l
411.842056 203.0292 l
412.273669 207.911971 l
412.705283 207.779305 l
413.136896 204.812026 l
413.568509 209.822616 l
414.000123 205.661638 l
414.431736 205.671771 l
415.294963 208.426616 l
415.726577 207.446112 l
416.15819 203.110689 l
416.589803 209.282147 l
417.45303 206.726434 l
417.884644 206.246992 l
418.316257 206.127554 l
418.747871 208.589909 l
419.179484 205.946477 l
419.611097 206.533957 l
420.042711 205.50505 l
420.474324 209.63246 l
420.905938 204.073521 l
421.337551 207.787054 l
421.769165 208.601872 l
422.200778 203.585802 l
422.632391 208.632618 l
423.064005 208.19574 l
423.495618 206.897665 l
423.927232 206.137961 l
424.358845 206.667587 l
424.790459 207.73051 l
425.222072 204.867388 l
425.653686 208.487306 l
426.085299 206.178261 l
426.516912 206.824938 l
426.948526 206.820843 l
427.380139 208.247007 l
427.811753 205.753513 l
428.243366 205.978784 l
428.67498 207.708534 l
429.106593 208.35513 l
429.538206 205.865238 l
429.96982 206.063688 l
430.401433 207.234413 l
430.833047 207.713354 l
431.26466 205.42948 l
431.696274 207.216115 l
432.127887 208.040928 l
432.5595 205.748894 l
432.991114 206.630968 l
433.422727 207.977255 l
433.854341 206.240402 l
434.285954 208.345308 l
434.717568 205.348481 l
435.149181 207.392423 l
435.580794 206.222731 l
436.012408 207.648064 l
436.444021 206.911328 l
436.875635 204.227606 l
437.307248 209.684693 l
438.170475 204.682085 l
438.602088 209.183163 l
439.033702 206.253542 l
439.465315 204.503652 l
439.896929 210.003512 l
440.328542 206.534271 l
440.760156 204.626923 l
441.191769 208.934351 l
441.623382 206.737226 l
442.054996 206.414738 l
442.486609 207.869952 l
443.349836 205.385462 l
443.78145 208.393587 l
444.213063 206.343459 l
444.644676 206.942345 l
445.07629 206.424638 l
445.507903 207.965517 l
445.939517 205.283027 l
446.37113 208.324914 l
446.802744 206.665901 l
447.234357 206.45985 l
447.665971 207.060677 l
448.097584 207.423268 l
448.529197 204.601932 l
448.960811 209.209785 l
449.392424 206.468067 l
449.824038 206.606592 l
450.255651 206.972463 l
450.687265 206.697417 l
451.118878 207.238791 l
451.550491 206.478954 l
451.982105 207.574869 l
452.413718 206.798606 l
452.845332 205.687766 l
453.276945 208.865771 l
453.708559 205.693515 l
454.140172 205.066589 l
454.571785 211.024892 l
455.003399 205.401939 l
455.435012 204.404424 l
455.866626 208.77541 l
456.298239 208.169862 l
456.729853 204.358843 l
457.593079 208.727264 l
458.024693 207.822057 l
458.456306 204.281408 l
458.88792 207.879346 l
459.319533 207.773028 l
459.751147 205.115207 l
460.18276 207.603892 l
460.614373 206.519142 l
461.045987 207.18605 l
461.909214 207.037594 l
462.340827 206.878641 l
462.772441 204.817159 l
463.204054 209.806377 l
463.635667 205.22257 l
464.067281 208.332678 l
464.498894 205.95327 l
464.930508 206.3499 l
465.362121 208.423691 l
466.225348 204.453288 l
466.656962 207.404952 l
467.088575 208.917837 l
467.520188 207.245339 l
467.951802 205.112138 l
468.383415 207.865436 l
468.815029 206.094031 l
469.246642 207.769701 l
469.678256 206.244595 l
470.109869 206.753658 l
470.541482 207.994409 l
470.973096 205.804963 l
471.404709 207.827232 l
471.836323 206.883459 l
472.267936 205.453011 l
472.69955 207.937508 l
473.131163 207.791209 l
473.562776 205.417136 l
474.426003 208.028654 l
474.857617 207.1083 l
475.28923 205.172271 l
475.720844 207.205904 l
476.152457 207.865539 l
476.58407 206.394935 l
477.015684 206.937983 l
477.878911 206.416337 l
478.310524 207.646218 l
478.742138 207.183476 l
479.173751 205.30089 l
479.605364 207.838515 l
480.036978 207.040959 l
480.468591 207.180768 l
480.900205 205.149591 l
481.331818 208.492989 l
481.763432 207.951894 l
482.195045 204.455159 l
482.626658 207.561984 l
483.058272 207.867307 l
483.489885 205.959273 l
483.921499 205.579777 l
484.353112 208.526905 l
484.784726 208.449613 l
485.216339 203.363714 l
485.647952 206.943749 l
486.079566 209.331268 l
486.511179 206.396786 l
486.942793 206.258911 l
487.374406 207.262392 l
487.80602 207.329632 l
488.237633 206.473574 l
488.669247 206.884635 l
489.10086 206.243718 l
489.532473 207.428611 l
489.964087 206.83715 l
490.3957 207.31845 l
490.827314 206.072035 l
491.258927 207.646457 l
491.690541 206.084233 l
492.122154 207.633578 l
492.553767 206.684131 l
492.985381 206.44011 l
493.416994 207.267894 l
493.848608 208.368473 l
494.280221 204.341602 l
494.711835 206.912315 l
495.143448 208.706067 l
495.575061 205.434433 l
496.006675 207.405603 l
496.438288 207.191517 l
496.869902 206.61615 l
497.301515 207.777819 l
497.733129 205.44941 l
498.164742 207.140369 l
498.596355 207.823521 l
499.027969 205.401144 l
499.459582 209.300038 l
499.891196 203.799378 l
500.322809 210.545867 l
500.754423 201.968967 l
501.186036 205.555704 l
501.617649 213.859753 l
502.049263 204.394429 l
502.480876 204.267852 l
502.91249 210.500951 l
503.344103 205.381695 l
504.20733 208.043867 l
504.638943 205.469026 l
505.070557 207.699894 l
505.50217 207.873772 l
505.933784 206.751281 l
506.365397 204.817303 l
506.797011 207.666406 l
507.228624 206.774141 l
507.660238 206.536449 l
508.091851 208.260557 l
508.523464 204.993438 l
508.955078 208.810743 l
509.386691 206.088464 l
509.818305 205.858242 l
510.249918 208.275198 l
510.681532 205.780057 l
511.113145 207.669018 l
511.976372 206.187057 l
512.839599 207.635777 l
513.271212 207.416232 l
513.702826 205.362264 l
514.134439 207.189988 l
514.566052 207.702948 l
514.997666 206.12366 l
515.429279 208.063191 l
515.860893 206.000437 l
516.292506 206.404063 l
516.72412 207.496222 l
517.155733 207.213061 l
517.587346 206.581285 l
518.01896 206.841373 l
518.450573 206.355668 l
518.882187 207.572505 l
519.3138 206.814116 l
520.177027 207.154019 l
520.60864 205.522454 l
521.040254 208.366044 l
521.471867 206.867057 l
521.903481 206.137765 l
522.335094 206.468382 l
522.766708 207.846762 l
523.198321 205.674013 l
523.629934 207.140494 l
524.061548 207.866315 l
524.493161 206.319313 l
524.924775 207.120715 l
525.356388 206.325068 l
525.788002 207.258123 l
526.219615 207.135236 l
526.651229 207.44197 l
527.082842 205.386428 l
527.514455 207.653942 l
527.946069 206.542729 l
528.377682 207.468657 l
528.809296 207.410086 l
529.240909 206.35603 l
529.240909 206.35603 l
stroke
grestore
0.800 setlinewidth
0 setlinejoin
0.000 setgray
gsave
76.5 43.56 m
76.5 348.48 l
stroke
grestore
gsave
550.8 43.56 m
550.8 348.48 l
stroke
grestore
gsave
76.5 43.56 m
550.8 43.56 l
stroke
grestore
gsave
76.5 348.48 m
550.8 348.48 l
stroke
grestore

end
showpage
