%!PS-Adobe-3.0 EPSF-3.0
%%Title: PSO_inertia_weight.eps
%%Creator: Matplotlib v3.5.3, https://matplotlib.org/
%%CreationDate: Thu Jan 12 15:06:36 2023
%%Orientation: portrait
%%BoundingBox: 0 198 612 594
%%HiResBoundingBox: 0.000000 198.000000 612.000000 594.000000
%%EndComments
%%BeginProlog
/mpldict 12 dict def
mpldict begin
/_d { bind def } bind def
/m { moveto } _d
/l { lineto } _d
/r { rlineto } _d
/c { curveto } _d
/cl { closepath } _d
/ce { closepath eofill } _d
/box {
      m
      1 index 0 r
      0 exch r
      neg 0 r
      cl
    } _d
/clipbox {
      box
      clip
      newpath
    } _d
/sc { setcachedevice } _d
%!PS-Adobe-3.0 Resource-Font
%%Creator: Converted from TrueType to Type 3 by Matplotlib.
10 dict begin
/FontName /DejaVuSans def
/PaintType 0 def
/FontMatrix [0.00048828125 0 0 0.00048828125 0 0] def
/FontBBox [-2090 -948 3673 2524] def
/FontType 3 def
/Encoding [/zero /one /two /minus /four /five /six /eight] def
/CharStrings 9 dict dup begin
/.notdef 0 def
/zero{1303 0 135 -29 1167 1520 sc
651 1360 m
547 1360 469 1309 416 1206 c
364 1104 338 950 338 745 c
338 540 364 387 416 284 c
469 182 547 131 651 131 c
756 131 834 182 886 284 c
939 387 965 540 965 745 c
965 950 939 1104 886 1206 c
834 1309 756 1360 651 1360 c

651 1520 m
818 1520 946 1454 1034 1321 c
1123 1189 1167 997 1167 745 c
1167 494 1123 302 1034 169 c
946 37 818 -29 651 -29 c
484 -29 356 37 267 169 c
179 302 135 494 135 745 c
135 997 179 1189 267 1321 c
356 1454 484 1520 651 1520 c

ce} _d
/one{1303 0 225 0 1114 1493 sc
254 170 m
584 170 l
584 1309 l
225 1237 l
225 1421 l
582 1493 l
784 1493 l
784 170 l
1114 170 l
1114 0 l
254 0 l
254 170 l

ce} _d
/two{1303 0 150 0 1098 1520 sc
393 170 m
1098 170 l
1098 0 l
150 0 l
150 170 l
227 249 331 356 463 489 c
596 623 679 709 713 748 c
778 821 823 882 848 932 c
874 983 887 1032 887 1081 c
887 1160 859 1225 803 1275 c
748 1325 675 1350 586 1350 c
523 1350 456 1339 385 1317 c
315 1295 240 1262 160 1217 c
160 1421 l
241 1454 317 1478 388 1495 c
459 1512 523 1520 582 1520 c
737 1520 860 1481 952 1404 c
1044 1327 1090 1223 1090 1094 c
1090 1033 1078 974 1055 919 c
1032 864 991 800 930 725 c
913 706 860 650 771 557 c
682 465 556 336 393 170 c

ce} _d
/minus{1716 0 217 557 1499 727 sc
217 727 m
1499 727 l
1499 557 l
217 557 l
217 727 l

ce} _d
/four{1303 0 100 0 1188 1493 sc
774 1317 m
264 520 l
774 520 l
774 1317 l

721 1493 m
975 1493 l
975 520 l
1188 520 l
1188 352 l
975 352 l
975 0 l
774 0 l
774 352 l
100 352 l
100 547 l
721 1493 l

ce} _d
/five{1303 0 158 -29 1124 1493 sc
221 1493 m
1014 1493 l
1014 1323 l
406 1323 l
406 957 l
435 967 465 974 494 979 c
523 984 553 987 582 987 c
749 987 881 941 978 850 c
1075 759 1124 635 1124 479 c
1124 318 1074 193 974 104 c
874 15 733 -29 551 -29 c
488 -29 424 -24 359 -13 c
294 -2 227 14 158 35 c
158 238 l
218 205 280 181 344 165 c
408 149 476 141 547 141 c
662 141 754 171 821 232 c
888 293 922 375 922 479 c
922 583 888 665 821 726 c
754 787 662 817 547 817 c
493 817 439 811 385 799 c
332 787 277 768 221 743 c
221 1493 l

ce} _d
/six{1303 0 143 -29 1174 1520 sc
676 827 m
585 827 513 796 460 734 c
407 672 381 587 381 479 c
381 372 407 287 460 224 c
513 162 585 131 676 131 c
767 131 838 162 891 224 c
944 287 971 372 971 479 c
971 587 944 672 891 734 c
838 796 767 827 676 827 c

1077 1460 m
1077 1276 l
1026 1300 975 1318 923 1331 c
872 1344 821 1350 770 1350 c
637 1350 535 1305 464 1215 c
394 1125 354 989 344 807 c
383 865 433 909 492 940 c
551 971 617 987 688 987 c
838 987 956 941 1043 850 c
1130 759 1174 636 1174 479 c
1174 326 1129 203 1038 110 c
947 17 827 -29 676 -29 c
503 -29 371 37 280 169 c
189 302 143 494 143 745 c
143 981 199 1169 311 1309 c
423 1450 573 1520 762 1520 c
813 1520 864 1515 915 1505 c
967 1495 1021 1480 1077 1460 c

ce} _d
/eight{1303 0 139 -29 1163 1520 sc
651 709 m
555 709 479 683 424 632 c
369 581 342 510 342 420 c
342 330 369 259 424 208 c
479 157 555 131 651 131 c
747 131 823 157 878 208 c
933 260 961 331 961 420 c
961 510 933 581 878 632 c
823 683 748 709 651 709 c

449 795 m
362 816 295 857 246 916 c
198 975 174 1048 174 1133 c
174 1252 216 1347 301 1416 c
386 1485 503 1520 651 1520 c
800 1520 916 1485 1001 1416 c
1086 1347 1128 1252 1128 1133 c
1128 1048 1104 975 1055 916 c
1007 857 940 816 854 795 c
951 772 1027 728 1081 662 c
1136 596 1163 515 1163 420 c
1163 275 1119 164 1030 87 c
942 10 816 -29 651 -29 c
486 -29 360 10 271 87 c
183 164 139 275 139 420 c
139 515 166 596 221 662 c
276 728 352 772 449 795 c

375 1114 m
375 1037 399 976 447 933 c
496 890 564 868 651 868 c
738 868 805 890 854 933 c
903 976 928 1037 928 1114 c
928 1191 903 1252 854 1295 c
805 1338 738 1360 651 1360 c
564 1360 496 1338 447 1295 c
399 1252 375 1191 375 1114 c

ce} _d
end readonly def

/BuildGlyph {
 exch begin
 CharStrings exch
 2 copy known not {pop /.notdef} if
 true 3 1 roll get exec
 end
} _d

/BuildChar {
 1 index /Encoding get exch get
 1 index /BuildGlyph get exec
} _d

FontName currentdict end definefont pop
%!PS-Adobe-3.0 Resource-Font
%%Creator: Converted from TrueType to Type 3 by Matplotlib.
10 dict begin
/FontName /TimesNewRomanPSMT def
/PaintType 0 def
/FontMatrix [0.00048828125 0 0 0.00048828125 0 0] def
/FontBBox [-1164 -628 4096 2062] def
/FontType 3 def
/Encoding [/space /a /e /g /h /I /i /n /o /r /t /W] def
/CharStrings 13 dict dup begin
/.notdef 0 def
/space{512 0 0 0 0 0 sc
ce} _d
/a{909 0 73 -19 905 943 sc
583 132 m
489 59 430 17 406 6 c
370 -11 332 -19 291 -19 c
228 -19 175 3 134 46 c
93 89 73 146 73 217 c
73 262 83 300 103 333 c
130 378 178 421 245 461 c
313 501 426 550 583 607 c
583 643 l
583 734 568 797 539 831 c
510 865 468 882 413 882 c
371 882 338 871 313 848 c
288 825 275 799 275 770 c
277 712 l
277 681 269 658 253 641 c
238 624 217 616 192 616 c
167 616 147 625 131 642 c
116 659 108 683 108 713 c
108 770 137 823 196 871 c
255 919 337 943 443 943 c
524 943 591 929 643 902 c
682 881 711 849 730 805 c
742 776 748 718 748 629 c
748 318 l
748 231 750 177 753 157 c
756 138 762 125 769 118 c
777 111 786 108 796 108 c
807 108 816 110 824 115 c
838 124 865 148 905 188 c
905 132 l
830 32 759 -18 691 -18 c
658 -18 632 -7 613 16 c
594 39 584 77 583 132 c

583 197 m
583 546 l
482 506 417 478 388 461 c
335 432 298 401 275 369 c
252 337 241 302 241 264 c
241 216 255 176 284 144 c
313 113 346 97 383 97 c
434 97 500 130 583 197 c

ce} _d
/e{909 0 76 -28 851 944 sc
218 571 m
217 435 250 328 317 251 c
384 174 462 135 552 135 c
612 135 664 151 708 184 c
753 217 790 274 820 354 c
851 334 l
837 243 796 159 729 84 c
662 9 577 -28 476 -28 c
366 -28 272 15 193 100 c
115 186 76 301 76 446 c
76 603 116 725 196 812 c
277 900 378 944 499 944 c
602 944 686 910 752 842 c
818 775 851 684 851 571 c
218 571 l

218 629 m
642 629 l
639 688 632 729 621 753 c
604 790 579 820 546 841 c
513 862 479 873 443 873 c
388 873 338 851 294 808 c
251 765 225 706 218 629 c

ce} _d
/g{1024 0 61 -442 987 943 sc
309 334 m
253 361 210 399 180 448 c
150 497 135 552 135 611 c
135 702 169 780 237 845 c
306 910 393 943 500 943 c
587 943 663 922 727 879 c
921 879 l
950 879 966 878 971 876 c
976 875 979 872 981 868 c
985 862 987 851 987 836 c
987 819 985 807 982 800 c
980 797 976 794 971 792 c
966 790 950 789 921 789 c
802 789 l
839 741 858 680 858 605 c
858 520 825 447 760 386 c
695 325 607 295 497 295 c
452 295 405 302 358 315 c
329 290 309 267 298 248 c
288 229 283 213 283 200 c
283 189 288 178 299 167 c
310 156 332 149 364 144 c
383 141 429 139 504 137 c
641 134 730 129 771 123 c
833 114 882 91 919 54 c
956 17 975 -29 975 -84 c
975 -159 940 -230 869 -296 c
765 -393 629 -442 462 -442 c
333 -442 225 -413 136 -355 c
86 -322 61 -287 61 -251 c
61 -235 65 -219 72 -203 c
83 -178 107 -144 142 -100 c
147 -94 181 -58 244 8 c
209 29 185 47 170 63 c
156 80 149 98 149 119 c
149 142 158 170 177 201 c
196 232 240 277 309 334 c

483 895 m
434 895 392 875 359 836 c
326 797 309 736 309 655 c
309 550 332 468 377 410 c
412 366 456 344 509 344 c
560 344 601 363 634 401 c
667 439 683 499 683 580 c
683 686 660 769 614 829 c
580 873 536 895 483 895 c

299 0 m
268 -34 244 -66 228 -95 c
212 -124 204 -151 204 -176 c
204 -208 223 -236 262 -260 c
329 -301 425 -322 551 -322 c
671 -322 759 -301 816 -258 c
873 -216 902 -171 902 -123 c
902 -88 885 -64 851 -49 c
816 -34 748 -26 645 -23 c
495 -19 380 -11 299 0 c

ce} _d
/h{1024 0 13 0 1011 1422 sc
333 1422 m
333 752 l
407 833 466 885 509 908 c
552 931 596 943 639 943 c
691 943 736 929 773 900 c
810 871 838 826 856 765 c
869 722 875 644 875 531 c
875 207 l
875 149 880 109 889 88 c
896 72 907 59 923 50 c
939 41 968 36 1011 36 c
1011 0 l
561 0 l
561 36 l
582 36 l
625 36 654 42 671 55 c
688 68 699 88 706 113 c
708 124 709 155 709 207 c
709 531 l
709 631 704 697 693 728 c
683 759 667 783 644 798 c
621 814 594 822 562 822 c
529 822 495 813 460 796 c
425 779 382 744 333 691 c
333 207 l
333 144 336 105 343 90 c
350 75 363 62 382 51 c
401 41 434 36 481 36 c
481 0 l
27 0 l
27 36 l
68 36 100 42 123 55 c
136 62 147 74 155 93 c
163 112 167 150 167 207 c
167 1036 l
167 1141 164 1205 159 1229 c
154 1253 147 1269 136 1278 c
126 1287 112 1291 95 1291 c
81 1291 58 1286 27 1275 c
13 1310 l
287 1422 l
333 1422 l

ce} _d
/I{682 0 51 0 632 1356 sc
632 37 m
632 0 l
51 0 l
51 37 l
99 37 l
155 37 196 53 221 86 c
237 107 245 159 245 240 c
245 1116 l
245 1185 241 1230 232 1252 c
225 1269 212 1283 191 1295 c
162 1311 131 1319 99 1319 c
51 1319 l
51 1356 l
632 1356 l
632 1319 l
583 1319 l
528 1319 487 1303 462 1270 c
445 1249 437 1197 437 1116 c
437 240 l
437 171 441 126 450 104 c
457 87 471 73 492 61 c
521 45 551 37 583 37 c
632 37 l

ce} _d
/i{569 0 60 0 519 1422 sc
297 1422 m
325 1422 349 1412 368 1392 c
388 1373 398 1349 398 1321 c
398 1293 388 1269 368 1249 c
349 1229 325 1219 297 1219 c
269 1219 245 1229 225 1249 c
205 1269 195 1293 195 1321 c
195 1349 205 1373 224 1392 c
244 1412 268 1422 297 1422 c

380 943 m
380 207 l
380 150 384 111 392 92 c
401 73 413 59 429 50 c
446 41 476 36 519 36 c
519 0 l
74 0 l
74 36 l
119 36 149 40 164 49 c
179 58 191 72 200 92 c
209 112 214 150 214 207 c
214 560 l
214 659 211 724 205 753 c
200 774 193 789 183 797 c
173 806 159 810 142 810 c
123 810 101 805 74 795 c
60 831 l
336 943 l
380 943 l

ce} _d
/n{1024 0 12 0 1015 943 sc
331 749 m
438 878 541 943 638 943 c
688 943 731 930 767 905 c
803 880 832 839 853 782 c
868 742 875 681 875 598 c
875 207 l
875 149 880 110 889 89 c
896 72 908 59 924 50 c
941 41 971 36 1015 36 c
1015 0 l
562 0 l
562 36 l
581 36 l
624 36 653 42 670 55 c
687 68 699 88 706 113 c
709 123 710 154 710 207 c
710 582 l
710 665 699 726 677 763 c
656 801 619 820 568 820 c
489 820 410 777 331 690 c
331 207 l
331 145 335 107 342 92 c
351 73 364 58 380 49 c
397 40 430 36 480 36 c
480 0 l
27 0 l
27 36 l
47 36 l
94 36 125 48 141 71 c
158 95 166 140 166 207 c
166 547 l
166 657 163 724 158 748 c
153 772 146 788 135 797 c
125 806 111 810 94 810 c
75 810 53 805 27 795 c
12 831 l
288 943 l
331 943 l
331 749 l

ce} _d
/o{1024 0 69 -28 953 943 sc
512 943 m
651 943 762 890 846 785 c
917 695 953 592 953 475 c
953 393 933 310 894 226 c
855 142 800 79 731 36 c
662 -7 586 -28 501 -28 c
363 -28 253 27 172 137 c
103 230 69 334 69 449 c
69 533 90 616 131 699 c
173 782 228 844 296 883 c
364 923 436 943 512 943 c

481 878 m
446 878 410 867 374 846 c
339 825 310 789 288 736 c
266 683 255 616 255 533 c
255 400 281 285 334 188 c
387 91 457 43 544 43 c
609 43 662 70 704 123 c
746 176 767 268 767 398 c
767 561 732 689 662 782 c
615 846 554 878 481 878 c

ce} _d
/r{682 0 13 0 695 943 sc
332 943 m
332 737 l
409 874 487 943 568 943 c
605 943 635 932 659 909 c
683 887 695 861 695 832 c
695 806 686 784 669 766 c
652 748 631 739 607 739 c
584 739 557 750 528 773 c
499 796 478 808 464 808 c
452 808 439 801 425 788 c
395 761 364 716 332 653 c
332 214 l
332 163 338 125 351 99 c
360 81 375 66 397 54 c
419 42 451 36 492 36 c
492 0 l
23 0 l
23 36 l
70 36 104 43 127 58 c
144 69 155 86 162 109 c
165 120 167 153 167 206 c
167 561 l
167 668 165 731 160 751 c
156 772 148 787 136 796 c
125 805 110 810 93 810 c
72 810 49 805 23 795 c
13 831 l
290 943 l
332 943 l

ce} _d
/t{569 0 20 -15 572 1217 sc
330 1217 m
330 916 l
544 916 l
544 846 l
330 846 l
330 252 l
330 193 338 153 355 132 c
372 111 394 101 421 101 c
443 101 464 108 485 121 c
506 135 522 155 533 182 c
572 182 l
549 117 516 67 473 34 c
430 1 386 -15 341 -15 c
310 -15 280 -7 251 10 c
222 27 200 52 186 83 c
172 115 165 164 165 230 c
165 846 l
20 846 l
20 879 l
57 894 94 918 132 953 c
171 988 205 1030 235 1078 c
250 1103 272 1150 299 1217 c
330 1217 l

ce} _d
/W{1933 0 27 -31 1917 1356 sc
1917 1356 m
1917 1319 l
1882 1319 1853 1313 1831 1300 c
1809 1287 1788 1264 1768 1229 c
1755 1206 1734 1150 1705 1062 c
1327 -31 l
1287 -31 l
978 836 l
671 -31 l
635 -31 l
232 1095 l
202 1179 183 1229 175 1244 c
162 1269 143 1288 120 1300 c
97 1313 66 1319 27 1319 c
27 1356 l
529 1356 l
529 1319 l
505 1319 l
470 1319 443 1311 424 1295 c
405 1279 396 1260 396 1237 c
396 1214 411 1160 440 1076 c
707 315 l
932 962 l
892 1076 l
860 1167 l
846 1200 830 1230 813 1255 c
804 1268 794 1278 781 1287 c
764 1299 748 1308 731 1313 c
718 1317 698 1319 671 1319 c
671 1356 l
1199 1356 l
1199 1319 l
1163 1319 l
1126 1319 1098 1311 1081 1295 c
1064 1279 1055 1257 1055 1230 c
1055 1196 1070 1137 1100 1052 c
1360 315 l
1618 1062 l
1647 1145 1662 1202 1662 1234 c
1662 1249 1657 1264 1647 1277 c
1638 1290 1626 1300 1611 1305 c
1586 1314 1553 1319 1512 1319 c
1512 1356 l
1917 1356 l

ce} _d
end readonly def

/BuildGlyph {
 exch begin
 CharStrings exch
 2 copy known not {pop /.notdef} if
 true 3 1 roll get exec
 end
} _d

/BuildChar {
 1 index /Encoding get exch get
 1 index /BuildGlyph get exec
} _d

FontName currentdict end definefont pop
end
%%EndProlog
mpldict begin
0 198 translate
612 396 0 0 clipbox
gsave
0 0 m
612 0 l
612 396 l
0 396 l
cl
1.000 setgray
fill
grestore
gsave
76.5 43.56 m
550.8 43.56 l
550.8 348.48 l
76.5 348.48 l
cl
1.000 setgray
fill
grestore
0.800 setlinewidth
1 setlinejoin
0 setlinecap
[] 0 setdash
0.000 setgray
gsave
/o {
gsave
newpath
translate
0.8 setlinewidth
1 setlinejoin

0 setlinecap

0 0 m
0 -3.5 l

gsave
0.000 setgray
fill
grestore
stroke
grestore
} bind def
98.0591 43.56 o
grestore
/DejaVuSans 10.000 selectfont
gsave

94.879403 28.966250 translate
0.000000 rotate
0.000000 0 m /zero glyphshow
grestore
gsave
/o {
gsave
newpath
translate
0.8 setlinewidth
1 setlinejoin

0 setlinecap

0 0 m
0 -3.5 l

gsave
0.000 setgray
fill
grestore
stroke
grestore
} bind def
184.382 43.56 o
grestore
gsave

174.842715 28.966250 translate
0.000000 rotate
0.000000 0 m /two glyphshow
6.362305 0 m /zero glyphshow
12.724609 0 m /zero glyphshow
grestore
gsave
/o {
gsave
newpath
translate
0.8 setlinewidth
1 setlinejoin

0 setlinecap

0 0 m
0 -3.5 l

gsave
0.000 setgray
fill
grestore
stroke
grestore
} bind def
270.704 43.56 o
grestore
gsave

261.165401 28.966250 translate
0.000000 rotate
0.000000 0 m /four glyphshow
6.362305 0 m /zero glyphshow
12.724609 0 m /zero glyphshow
grestore
gsave
/o {
gsave
newpath
translate
0.8 setlinewidth
1 setlinejoin

0 setlinecap

0 0 m
0 -3.5 l

gsave
0.000 setgray
fill
grestore
stroke
grestore
} bind def
357.027 43.56 o
grestore
gsave

347.488087 28.966250 translate
0.000000 rotate
0.000000 0 m /six glyphshow
6.362305 0 m /zero glyphshow
12.724609 0 m /zero glyphshow
grestore
gsave
/o {
gsave
newpath
translate
0.8 setlinewidth
1 setlinejoin

0 setlinecap

0 0 m
0 -3.5 l

gsave
0.000 setgray
fill
grestore
stroke
grestore
} bind def
443.35 43.56 o
grestore
gsave

433.810774 28.966250 translate
0.000000 rotate
0.000000 0 m /eight glyphshow
6.362305 0 m /zero glyphshow
12.724609 0 m /zero glyphshow
grestore
gsave
/o {
gsave
newpath
translate
0.8 setlinewidth
1 setlinejoin

0 setlinecap

0 0 m
0 -3.5 l

gsave
0.000 setgray
fill
grestore
stroke
grestore
} bind def
529.673 43.56 o
grestore
gsave

516.953773 28.966250 translate
0.000000 rotate
0.000000 0 m /one glyphshow
6.362305 0 m /zero glyphshow
12.724609 0 m /zero glyphshow
19.086914 0 m /zero glyphshow
grestore
/TimesNewRomanPSMT 24.000 selectfont
gsave

272.985938 6.216250 translate
0.000000 rotate
0.000000 0 m /I glyphshow
7.992188 0 m /t glyphshow
14.660156 0 m /e glyphshow
25.312500 0 m /r glyphshow
33.304688 0 m /a glyphshow
43.957031 0 m /t glyphshow
50.625000 0 m /i glyphshow
57.292969 0 m /o glyphshow
69.292969 0 m /n glyphshow
grestore
gsave
/o {
gsave
newpath
translate
0.8 setlinewidth
1 setlinejoin

0 setlinecap

-0 0 m
-3.5 0 l

gsave
0.000 setgray
fill
grestore
stroke
grestore
} bind def
76.5 68.1657 o
grestore
/DejaVuSans 10.000 selectfont
gsave

29.328125 64.368819 translate
0.000000 rotate
0.000000 0 m /minus glyphshow
8.378906 0 m /one glyphshow
14.741211 0 m /zero glyphshow
21.103516 0 m /zero glyphshow
27.465820 0 m /zero glyphshow
33.828125 0 m /zero glyphshow
grestore
gsave
/o {
gsave
newpath
translate
0.8 setlinewidth
1 setlinejoin

0 setlinecap

-0 0 m
-3.5 0 l

gsave
0.000 setgray
fill
grestore
stroke
grestore
} bind def
76.5 122.753 o
grestore
gsave

35.687500 118.955974 translate
0.000000 rotate
0.000000 0 m /minus glyphshow
8.378906 0 m /five glyphshow
14.741211 0 m /zero glyphshow
21.103516 0 m /zero glyphshow
27.465820 0 m /zero glyphshow
grestore
gsave
/o {
gsave
newpath
translate
0.8 setlinewidth
1 setlinejoin

0 setlinecap

-0 0 m
-3.5 0 l

gsave
0.000 setgray
fill
grestore
stroke
grestore
} bind def
76.5 177.34 o
grestore
gsave

63.140625 173.543130 translate
0.000000 rotate
0.000000 0 m /zero glyphshow
grestore
gsave
/o {
gsave
newpath
translate
0.8 setlinewidth
1 setlinejoin

0 setlinecap

-0 0 m
-3.5 0 l

gsave
0.000 setgray
fill
grestore
stroke
grestore
} bind def
76.5 231.927 o
grestore
gsave

44.062500 228.130285 translate
0.000000 rotate
0.000000 0 m /five glyphshow
6.362305 0 m /zero glyphshow
12.724609 0 m /zero glyphshow
19.086914 0 m /zero glyphshow
grestore
gsave
/o {
gsave
newpath
translate
0.8 setlinewidth
1 setlinejoin

0 setlinecap

-0 0 m
-3.5 0 l

gsave
0.000 setgray
fill
grestore
stroke
grestore
} bind def
76.5 286.514 o
grestore
gsave

37.703125 282.717441 translate
0.000000 rotate
0.000000 0 m /one glyphshow
6.362305 0 m /zero glyphshow
12.724609 0 m /zero glyphshow
19.086914 0 m /zero glyphshow
25.449219 0 m /zero glyphshow
grestore
gsave
/o {
gsave
newpath
translate
0.8 setlinewidth
1 setlinejoin

0 setlinecap

-0 0 m
-3.5 0 l

gsave
0.000 setgray
fill
grestore
stroke
grestore
} bind def
76.5 341.101 o
grestore
gsave

37.703125 337.304597 translate
0.000000 rotate
0.000000 0 m /one glyphshow
6.362305 0 m /five glyphshow
12.724609 0 m /zero glyphshow
19.086914 0 m /zero glyphshow
25.449219 0 m /zero glyphshow
grestore
/TimesNewRomanPSMT 24.000 selectfont
gsave

20.140625 127.488750 translate
90.000000 rotate
0.000000 0 m /I glyphshow
7.992188 0 m /n glyphshow
19.992188 0 m /e glyphshow
30.644531 0 m /r glyphshow
38.636719 0 m /t glyphshow
45.304688 0 m /i glyphshow
51.972656 0 m /a glyphshow
62.625000 0 m /space glyphshow
68.250000 0 m /W glyphshow
89.027344 0 m /e glyphshow
99.679688 0 m /i glyphshow
106.347656 0 m /g glyphshow
118.347656 0 m /h glyphshow
130.347656 0 m /t glyphshow
grestore
1.500 setlinewidth
2 setlinecap
0.122 0.467 0.706 setrgbcolor
gsave
474.3 304.92 76.5 43.56 clipbox
98.059091 187.370122 m
98.490704 168.947625 l
98.922318 176.875488 l
99.353931 209.527102 l
99.785545 162.396213 l
100.217158 158.387388 l
100.648771 209.224895 l
101.080385 171.618656 l
101.511998 169.10611 l
101.943612 174.830542 l
102.375225 136.852222 l
102.806839 253.016581 l
103.238452 123.587291 l
103.670066 141.660427 l
104.101679 223.305895 l
104.533292 187.112676 l
104.964906 180.506357 l
105.396519 156.371782 l
105.828133 241.726231 l
106.259746 169.585328 l
106.69136 60.520728 l
107.122973 250.034186 l
107.554586 225.747738 l
107.9862 181.025941 l
108.417813 70.523007 l
108.849427 168.428268 l
109.28104 311.199828 l
109.712654 66.898091 l
110.144267 121.019204 l
110.57588 334.62 l
111.007494 172.430398 l
111.439107 60.425367 l
111.870721 215.777565 l
112.302334 182.142719 l
112.733948 209.792872 l
113.165561 146.952355 l
113.597174 122.834948 l
114.028788 259.006319 l
114.460401 225.194838 l
114.892015 57.42 l
115.323628 209.157183 l
115.755242 171.298927 l
116.186855 217.676864 l
116.618468 131.499141 l
117.050082 229.326394 l
117.481695 159.437274 l
117.913309 142.878701 l
118.344922 225.666473 l
118.776536 135.825977 l
119.208149 191.722762 l
119.639762 200.645555 l
120.071376 162.005289 l
120.502989 181.886291 l
120.934603 162.066643 l
121.366216 192.480515 l
121.79783 144.258372 l
122.229443 210.890453 l
122.661057 162.443769 l
123.09267 186.710563 l
123.524283 176.170588 l
123.955897 179.815381 l
124.38751 161.384254 l
124.819124 167.987612 l
125.250737 210.646446 l
125.682351 165.295178 l
126.113964 176.903891 l
126.545577 142.390964 l
126.977191 200.827871 l
127.408804 186.281115 l
127.840418 198.627084 l
128.272031 112.802951 l
128.703645 226.359982 l
129.135258 163.792091 l
129.566871 163.803061 l
129.998485 189.076949 l
130.430098 181.017046 l
130.861712 180.876094 l
131.293325 191.254963 l
131.724939 164.276692 l
132.156552 186.027562 l
132.588165 137.405319 l
133.019779 219.66054 l
133.451392 193.189089 l
133.883006 104.004783 l
134.314619 246.458834 l
134.746233 174.765598 l
135.177846 126.2771 l
135.609459 236.640014 l
136.041073 135.723492 l
136.472686 175.409614 l
136.9043 227.368105 l
137.335913 99.524984 l
137.767527 190.316732 l
138.19914 250.54133 l
138.630753 148.77236 l
139.062367 135.909533 l
139.49398 226.663434 l
139.925594 155.40097 l
140.357207 155.018522 l
140.788821 212.301909 l
141.220434 184.529241 l
141.652048 92.094423 l
142.515274 272.596818 l
142.946888 168.570324 l
143.378501 106.13495 l
143.810115 294.55298 l
144.241728 102.994051 l
144.673342 173.067514 l
145.104955 192.087005 l
145.536568 191.00998 l
145.968182 146.970678 l
146.399795 183.39931 l
146.831409 189.435847 l
147.263022 197.15516 l
147.694636 165.102757 l
148.126249 160.989223 l
148.557862 176.340539 l
148.989476 165.529181 l
149.421089 207.772035 l
149.852703 171.183804 l
150.284316 161.004821 l
150.71593 202.61063 l
151.147543 157.49551 l
151.579156 183.024604 l
152.01077 169.766955 l
152.442383 171.523652 l
152.873997 192.16811 l
153.30561 183.300553 l
153.737224 165.710945 l
154.168837 189.849444 l
154.60045 155.624471 l
155.463677 205.077625 l
155.895291 153.714815 l
156.326904 151.678792 l
156.758518 226.127497 l
157.190131 170.386435 l
157.621744 130.494661 l
158.053358 210.705453 l
158.916585 168.457234 l
159.348198 171.159172 l
160.211425 180.536546 l
160.643038 192.69299 l
161.074652 145.287199 l
161.506265 202.927759 l
161.937879 173.495704 l
162.369492 166.114343 l
162.801106 180.389136 l
163.232719 189.268822 l
163.664333 160.425902 l
164.095946 174.408915 l
164.527559 202.137251 l
164.959173 154.03868 l
165.390786 173.717614 l
165.8224 209.007749 l
166.254013 145.076353 l
166.685627 193.766748 l
167.11724 185.4623 l
167.548853 174.253586 l
167.980467 154.659121 l
168.41208 188.244164 l
168.843694 207.889342 l
169.275307 150.264091 l
169.706921 174.330024 l
170.138534 181.643644 l
170.570147 180.921711 l
171.001761 173.732867 l
171.433374 171.51408 l
171.864988 178.939275 l
172.296601 177.687521 l
172.728215 201.301221 l
173.159828 162.341395 l
173.591441 148.570088 l
174.023055 237.048807 l
174.454668 128.797175 l
174.886282 188.026227 l
175.317895 200.422107 l
175.749509 148.034884 l
176.181122 166.949566 l
176.612735 215.836005 l
177.044349 157.68869 l
177.475962 162.827929 l
177.907576 214.479541 l
178.339189 159.939611 l
178.770803 155.336533 l
179.202416 197.790349 l
179.634029 168.226487 l
180.497256 206.764531 l
180.92887 122.934979 l
181.360483 206.525306 l
181.792097 175.839202 l
182.22371 164.378441 l
182.655324 173.409289 l
183.086937 203.441806 l
183.950164 140.274748 l
184.381777 195.316351 l
184.813391 203.140933 l
185.245004 152.176394 l
186.108231 198.162346 l
186.971458 145.939229 l
187.403071 210.541101 l
187.834685 165.78195 l
188.266298 190.339767 l
188.697912 164.804445 l
189.129525 187.867148 l
189.561138 152.246764 l
189.992752 205.424645 l
190.424365 148.117398 l
190.855979 180.681674 l
191.287592 204.577266 l
191.719206 157.843267 l
192.150819 168.727784 l
192.582432 209.104098 l
193.014046 164.158237 l
193.445659 165.375529 l
193.877273 182.454449 l
194.308886 182.689528 l
194.7405 166.503843 l
195.172113 199.54854 l
195.603726 166.121906 l
196.03534 166.411413 l
196.466953 188.766318 l
196.898567 178.947237 l
197.33018 177.064039 l
197.761794 169.102299 l
198.193407 178.174235 l
198.62502 181.453519 l
199.056634 174.800572 l
199.488247 176.398579 l
199.919861 184.597658 l
200.351474 168.45515 l
200.783088 179.819395 l
201.214701 178.196611 l
201.646314 183.187062 l
202.077928 171.361646 l
202.509541 176.689204 l
202.941155 176.031602 l
203.372768 181.45021 l
203.804382 172.820602 l
204.235995 180.978045 l
204.667609 172.569179 l
205.099222 185.320801 l
205.530835 174.00505 l
205.962449 173.174483 l
206.394062 181.344996 l
206.825676 175.504159 l
207.257289 175.467464 l
207.688903 181.503356 l
208.120516 174.528524 l
208.552129 180.883735 l
208.983743 173.161712 l
209.415356 179.281431 l
209.84697 177.664634 l
210.278583 177.566946 l
210.710197 175.055203 l
211.14181 179.767764 l
211.573423 177.949606 l
212.005037 172.402487 l
212.43665 185.377833 l
212.868264 165.754129 l
213.299877 186.767798 l
213.731491 177.850205 l
214.163104 172.296693 l
214.594717 179.7978 l
215.026331 176.485217 l
215.457944 178.777053 l
215.889558 176.456311 l
216.321171 176.923293 l
216.752785 176.979963 l
217.184398 178.825418 l
217.616011 177.682937 l
218.047625 176.199047 l
218.479238 176.718273 l
218.910852 178.275152 l
219.342465 178.007599 l
219.774079 175.457478 l
220.205692 179.477999 l
220.637305 176.403864 l
221.068919 176.093666 l
221.500532 178.594622 l
221.932146 177.360535 l
222.795373 176.983314 l
223.226986 178.30619 l
223.6586 176.428159 l
224.090213 177.453349 l
225.385053 177.462806 l
225.816667 177.398827 l
226.24828 177.5836 l
226.679894 177.020997 l
227.111507 177.018486 l
227.54312 177.514917 l
227.974734 177.796433 l
228.406347 176.697214 l
228.837961 177.447927 l
229.269574 177.700794 l
230.132801 176.792569 l
230.564414 178.175556 l
230.996028 177.042236 l
231.427641 177.097098 l
231.859255 177.561884 l
232.290868 177.504725 l
232.722482 176.612303 l
233.154095 178.03685 l
234.017322 177.015529 l
234.448935 177.259211 l
234.880549 177.682953 l
235.312162 176.980886 l
235.743776 177.47826 l
236.175389 177.138531 l
237.038616 177.760822 l
237.470229 177.019284 l
237.901843 177.102828 l
238.333456 177.628548 l
238.76507 177.327584 l
239.196683 177.404936 l
239.628296 177.2001 l
240.05991 177.20169 l
240.491523 177.506883 l
240.923137 177.047291 l
241.35475 177.563755 l
241.786364 177.259994 l
242.217977 177.478823 l
242.64959 176.799983 l
243.081204 177.893494 l
243.944431 176.78532 l
244.376044 177.75203 l
244.807658 177.470165 l
245.239271 177.017402 l
245.670885 177.383856 l
246.534111 177.385246 l
246.965725 177.233953 l
247.397338 177.462092 l
247.828952 177.175488 l
249.123792 177.437364 l
249.555405 177.091987 l
249.987019 177.549379 l
250.850246 177.253875 l
251.281859 177.015622 l
251.713473 177.668264 l
252.145086 177.294844 l
252.576699 177.466549 l
253.008313 177.121549 l
253.439926 177.41311 l
253.87154 177.225196 l
254.303153 177.463512 l
254.734767 177.431317 l
255.16638 177.005736 l
256.029607 177.69648 l
256.46122 176.947919 l
256.892834 177.564964 l
257.324447 177.536299 l
257.756061 176.752411 l
258.187674 177.759465 l
258.619287 177.153445 l
259.050901 177.651408 l
259.482514 176.742792 l
259.914128 177.903741 l
260.345741 176.908288 l
260.777355 177.893547 l
261.208968 177.5504 l
261.640581 176.106352 l
262.072195 178.407067 l
262.503808 176.990385 l
263.798649 177.393401 l
264.661876 177.418066 l
265.093489 177.063363 l
265.525102 177.548485 l
265.956716 177.487007 l
266.819943 177.070504 l
267.251556 177.4135 l
267.68317 177.470666 l
268.114783 177.154299 l
268.97801 177.603678 l
269.409623 176.990208 l
269.841237 177.440393 l
270.704464 177.37395 l
271.56769 177.332158 l
272.430917 177.252017 l
272.862531 177.546991 l
273.725758 177.123224 l
274.157371 177.399437 l
274.588984 177.451059 l
275.883825 177.357382 l
276.315438 177.424451 l
276.747052 177.110132 l
277.178665 177.535055 l
277.610278 177.208109 l
278.041892 177.517137 l
278.905119 177.1899 l
279.336732 177.641752 l
279.768346 177.041144 l
280.199959 177.434986 l
280.631572 177.455715 l
281.063186 177.124151 l
281.926413 177.520871 l
282.78964 177.114969 l
283.221253 177.55008 l
283.652867 177.32511 l
284.516093 177.20086 l
284.947707 177.493324 l
285.37932 177.314093 l
285.810934 177.446861 l
286.242547 177.13031 l
286.674161 177.726477 l
287.105774 176.97909 l
287.969001 177.674692 l
288.400614 177.198046 l
288.832228 177.223816 l
289.263841 177.480201 l
289.695455 177.340783 l
290.127068 177.43922 l
290.558681 177.33597 l
290.990295 177.104467 l
291.853522 177.58698 l
292.285135 177.162862 l
292.716749 177.2195 l
293.148362 177.49165 l
293.579975 177.436615 l
294.011589 177.132797 l
294.443202 177.432261 l
295.738043 177.250018 l
296.601269 177.421738 l
297.032883 177.256557 l
297.464496 177.461655 l
297.89611 177.297244 l
299.19095 177.399262 l
299.622563 177.234236 l
300.054177 177.553509 l
300.917404 177.104038 l
301.349017 177.389736 l
301.780631 177.520243 l
302.212244 177.162676 l
302.643857 177.546448 l
303.075471 177.224134 l
303.507084 177.386505 l
303.938698 177.250443 l
304.801925 177.388543 l
306.096765 177.276399 l
306.959992 177.418863 l
307.391605 177.227581 l
307.823219 177.43473 l
308.254832 177.307255 l
309.118059 177.365948 l
309.549672 177.272325 l
309.981286 177.401826 l
311.276126 177.311038 l
312.139353 177.350328 l
315.160647 177.29956 l
315.59226 177.377502 l
317.318714 177.332007 l
319.476781 177.332763 l
347.963268 177.355117 l
349.689722 177.327362 l
351.416175 177.34594 l
355.73231 177.317673 l
357.458763 177.33636 l
365.659419 177.340408 l
379.902662 177.339765 l
403.6414 177.340664 l
420.474324 177.340068 l
529.240909 177.340013 l
529.240909 177.340013 l
stroke
grestore
0.800 setlinewidth
0 setlinejoin
0.000 setgray
gsave
76.5 43.56 m
76.5 348.48 l
stroke
grestore
gsave
550.8 43.56 m
550.8 348.48 l
stroke
grestore
gsave
76.5 43.56 m
550.8 43.56 l
stroke
grestore
gsave
76.5 348.48 m
550.8 348.48 l
stroke
grestore

end
showpage
